%YAML 1.1
%TAG !u! tag:unity3d.com,2011:
--- !u!114 &11400000
MonoBehaviour:
  m_ObjectHideFlags: 0
  m_PrefabParentObject: {fileID: 0}
  m_PrefabInternal: {fileID: 0}
  m_GameObject: {fileID: 0}
  m_Enabled: 1
  m_EditorHideFlags: 0
  m_Script: {fileID: 11500000, guid: 70b942d90a9a83641aee6d08f5d808a8, type: 3}
  m_Name: UserAuth
  m_EditorClassIdentifier: 
  fullNameLength: 5
  canHasUpperCaseLetter: 1
  canHasLowerCaseLetter: 1
  canHasSpecialCharacter: 0
  canHasNumber: 0
  passwordLength: 6
  mustHasUpperCaseLetter: 0
  mustHasLowerCaseLetter: 0
  mustHasSpecialCharacter: 0
  mustHasNumber: 1
