%YAML 1.1
%TAG !u! tag:unity3d.com,2011:
--- !u!1045 &1
EditorBuildSettings:
  m_ObjectHideFlags: 0
  serializedVersion: 2
  m_Scenes:
  - enabled: 1
    path: Assets/_Scenes/_Simple Abstract Scenes/SplashScreen.unity
    guid: f453813e5df38934fa85b1a1fa2ecbc3
  - enabled: 1
    path: Assets/_Scenes/_Simple Abstract Scenes/HomeScreen.unity
    guid: 00000000000000000000000000000000
  - enabled: 1
    path: Assets/_Scenes/_Simple Abstract Scenes/LoginScreen.unity
    guid: 00000000000000000000000000000000
  - enabled: 1
    path: Assets/_Scenes/_Simple Abstract Scenes/ProfileScreen.unity
    guid: 00000000000000000000000000000000
  - enabled: 1
    path: Assets/_Scenes/_Simple Abstract Scenes/SignUpScreen.unity
    guid: 00000000000000000000000000000000
  - enabled: 1
    path: Assets/_Scenes/_Simple Abstract Scenes/WelcomeScreen.unity
    guid: 00000000000000000000000000000000
