%YAML 1.1
%TAG !u! tag:unity3d.com,2011:
--- !u!29 &1
OcclusionCullingSettings:
  m_ObjectHideFlags: 0
  serializedVersion: 2
  m_OcclusionBakeSettings:
    smallestOccluder: 5
    smallestHole: 0.25
    backfaceThreshold: 100
  m_SceneGUID: 00000000000000000000000000000000
  m_OcclusionCullingData: {fileID: 0}
--- !u!104 &2
RenderSettings:
  m_ObjectHideFlags: 0
  serializedVersion: 8
  m_Fog: 0
  m_FogColor: {r: 0.5, g: 0.5, b: 0.5, a: 1}
  m_FogMode: 3
  m_FogDensity: 0.01
  m_LinearFogStart: 0
  m_LinearFogEnd: 300
  m_AmbientSkyColor: {r: 0.212, g: 0.227, b: 0.259, a: 1}
  m_AmbientEquatorColor: {r: 0.114, g: 0.125, b: 0.133, a: 1}
  m_AmbientGroundColor: {r: 0.047, g: 0.043, b: 0.035, a: 1}
  m_AmbientIntensity: 1
  m_AmbientMode: 0
  m_SubtractiveShadowColor: {r: 0.42, g: 0.478, b: 0.627, a: 1}
  m_SkyboxMaterial: {fileID: 10304, guid: 0000000000000000f000000000000000, type: 0}
  m_HaloStrength: 0.5
  m_FlareStrength: 1
  m_FlareFadeSpeed: 3
  m_HaloTexture: {fileID: 0}
  m_SpotCookie: {fileID: 10001, guid: 0000000000000000e000000000000000, type: 0}
  m_DefaultReflectionMode: 0
  m_DefaultReflectionResolution: 128
  m_ReflectionBounces: 1
  m_ReflectionIntensity: 1
  m_CustomReflection: {fileID: 0}
  m_Sun: {fileID: 0}
  m_IndirectSpecularColor: {r: 0, g: 0, b: 0, a: 1}
--- !u!157 &4
LightmapSettings:
  m_ObjectHideFlags: 0
  serializedVersion: 9
  m_GIWorkflowMode: 0
  m_GISettings:
    serializedVersion: 2
    m_BounceScale: 1
    m_IndirectOutputScale: 1
    m_AlbedoBoost: 1
    m_TemporalCoherenceThreshold: 1
    m_EnvironmentLightingMode: 0
    m_EnableBakedLightmaps: 1
    m_EnableRealtimeLightmaps: 1
  m_LightmapEditorSettings:
    serializedVersion: 8
    m_Resolution: 2
    m_BakeResolution: 40
    m_TextureWidth: 1024
    m_TextureHeight: 1024
    m_AO: 0
    m_AOMaxDistance: 1
    m_CompAOExponent: 0
    m_CompAOExponentDirect: 0
    m_Padding: 2
    m_LightmapParameters: {fileID: 0}
    m_LightmapsBakeMode: 1
    m_TextureCompression: 1
    m_FinalGather: 0
    m_FinalGatherFiltering: 1
    m_FinalGatherRayCount: 1024
    m_ReflectionCompression: 2
    m_MixedBakeMode: 1
    m_BakeBackend: 0
    m_PVRSampling: 1
    m_PVRDirectSampleCount: 32
    m_PVRSampleCount: 500
    m_PVRBounces: 2
    m_PVRFiltering: 0
    m_PVRFilteringMode: 1
    m_PVRCulling: 1
    m_PVRFilteringGaussRadiusDirect: 1
    m_PVRFilteringGaussRadiusIndirect: 5
    m_PVRFilteringGaussRadiusAO: 2
    m_PVRFilteringAtrousColorSigma: 1
    m_PVRFilteringAtrousNormalSigma: 1
    m_PVRFilteringAtrousPositionSigma: 1
  m_LightingDataAsset: {fileID: 0}
  m_ShadowMaskMode: 2
--- !u!196 &5
NavMeshSettings:
  serializedVersion: 2
  m_ObjectHideFlags: 0
  m_BuildSettings:
    serializedVersion: 2
    agentTypeID: 0
    agentRadius: 0.5
    agentHeight: 2
    agentSlope: 45
    agentClimb: 0.4
    ledgeDropHeight: 0
    maxJumpAcrossDistance: 0
    minRegionArea: 2
    manualCellSize: 0
    cellSize: 0.16666667
    manualTileSize: 0
    tileSize: 256
    accuratePlacement: 0
  m_NavMeshData: {fileID: 0}
--- !u!1 &30457040
GameObject:
  m_ObjectHideFlags: 0
  m_PrefabParentObject: {fileID: 124676, guid: 3aeb4f8df08b0bb49aacbc22c6bb3bd0, type: 2}
  m_PrefabInternal: {fileID: 1659269740}
  serializedVersion: 5
  m_Component:
  - component: {fileID: 30457041}
  - component: {fileID: 30457043}
  - component: {fileID: 30457042}
  m_Layer: 5
  m_Name: Player
  m_TagString: Untagged
  m_Icon: {fileID: 0}
  m_NavMeshLayer: 0
  m_StaticEditorFlags: 0
  m_IsActive: 1
--- !u!224 &30457041
RectTransform:
  m_ObjectHideFlags: 0
  m_PrefabParentObject: {fileID: 22424676, guid: 3aeb4f8df08b0bb49aacbc22c6bb3bd0,
    type: 2}
  m_PrefabInternal: {fileID: 1659269740}
  m_GameObject: {fileID: 30457040}
  m_LocalRotation: {x: 0, y: 0, z: 0.2010298, w: -0.9795852}
  m_LocalPosition: {x: 0, y: 0, z: 0}
  m_LocalScale: {x: 1, y: 1, z: 1}
  m_Children:
  - {fileID: 956454502}
  - {fileID: 414942787}
  m_Father: {fileID: 671427525}
  m_RootOrder: 1
  m_LocalEulerAnglesHint: {x: 0, y: 0, z: 0}
  m_AnchorMin: {x: 0.5, y: 0.5}
  m_AnchorMax: {x: 0.5, y: 0.5}
  m_AnchoredPosition: {x: -108.3077, y: -66.4616}
  m_SizeDelta: {x: 30, y: 30}
  m_Pivot: {x: 0.5, y: 0.5}
--- !u!114 &30457042
MonoBehaviour:
  m_ObjectHideFlags: 0
  m_PrefabParentObject: {fileID: 11424680, guid: 3aeb4f8df08b0bb49aacbc22c6bb3bd0,
    type: 2}
  m_PrefabInternal: {fileID: 1659269740}
  m_GameObject: {fileID: 30457040}
  m_Enabled: 1
  m_EditorHideFlags: 0
  m_Script: {fileID: -765806418, guid: f5f67c52d1564df4a8936ccd202a3bd8, type: 3}
  m_Name: 
  m_EditorClassIdentifier: 
  m_Material: {fileID: 0}
  m_Color: {r: 0.99607843, g: 0.30588236, b: 0.30588236, a: 1}
  m_RaycastTarget: 1
  m_OnCullStateChanged:
    m_PersistentCalls:
      m_Calls: []
    m_TypeName: UnityEngine.UI.MaskableGraphic+CullStateChangedEvent, UnityEngine.UI,
      Version=1.0.0.0, Culture=neutral, PublicKeyToken=null
  m_Sprite: {fileID: 21300000, guid: 7ed1238760b863f4aafde32ab3a6f28c, type: 3}
  m_Type: 1
  m_PreserveAspect: 0
  m_FillCenter: 1
  m_FillMethod: 4
  m_FillAmount: 1
  m_FillClockwise: 1
  m_FillOrigin: 0
--- !u!222 &30457043
CanvasRenderer:
  m_ObjectHideFlags: 0
  m_PrefabParentObject: {fileID: 22224676, guid: 3aeb4f8df08b0bb49aacbc22c6bb3bd0,
    type: 2}
  m_PrefabInternal: {fileID: 1659269740}
  m_GameObject: {fileID: 30457040}
--- !u!1 &133967109
GameObject:
  m_ObjectHideFlags: 0
  m_PrefabParentObject: {fileID: 124680, guid: 3aeb4f8df08b0bb49aacbc22c6bb3bd0, type: 2}
  m_PrefabInternal: {fileID: 1659269740}
  serializedVersion: 5
  m_Component:
  - component: {fileID: 133967110}
  - component: {fileID: 133967112}
  - component: {fileID: 133967111}
  m_Layer: 5
  m_Name: Square
  m_TagString: Untagged
  m_Icon: {fileID: 0}
  m_NavMeshLayer: 0
  m_StaticEditorFlags: 0
  m_IsActive: 1
--- !u!224 &133967110
RectTransform:
  m_ObjectHideFlags: 0
  m_PrefabParentObject: {fileID: 22424680, guid: 3aeb4f8df08b0bb49aacbc22c6bb3bd0,
    type: 2}
  m_PrefabInternal: {fileID: 1659269740}
  m_GameObject: {fileID: 133967109}
  m_LocalRotation: {x: 0, y: 0, z: 0, w: 1}
  m_LocalPosition: {x: 0, y: 0, z: 0}
  m_LocalScale: {x: 1, y: 1, z: 1}
  m_Children: []
  m_Father: {fileID: 322686558}
  m_RootOrder: 0
  m_LocalEulerAnglesHint: {x: 0, y: 0, z: 0}
  m_AnchorMin: {x: 0.5, y: 0.5}
  m_AnchorMax: {x: 0.5, y: 0.5}
  m_AnchoredPosition: {x: 65.21145, y: 0}
  m_SizeDelta: {x: 93.423, y: 18.9}
  m_Pivot: {x: 0.5, y: 0.5}
--- !u!114 &133967111
MonoBehaviour:
  m_ObjectHideFlags: 0
  m_PrefabParentObject: {fileID: 11424684, guid: 3aeb4f8df08b0bb49aacbc22c6bb3bd0,
    type: 2}
  m_PrefabInternal: {fileID: 1659269740}
  m_GameObject: {fileID: 133967109}
  m_Enabled: 1
  m_EditorHideFlags: 0
  m_Script: {fileID: -765806418, guid: f5f67c52d1564df4a8936ccd202a3bd8, type: 3}
  m_Name: 
  m_EditorClassIdentifier: 
  m_Material: {fileID: 0}
  m_Color: {r: 0.18039216, g: 0.18039216, b: 0.18039216, a: 1}
  m_RaycastTarget: 1
  m_OnCullStateChanged:
    m_PersistentCalls:
      m_Calls: []
    m_TypeName: UnityEngine.UI.MaskableGraphic+CullStateChangedEvent, UnityEngine.UI,
      Version=1.0.0.0, Culture=neutral, PublicKeyToken=null
  m_Sprite: {fileID: 21300000, guid: 7ed1238760b863f4aafde32ab3a6f28c, type: 3}
  m_Type: 1
  m_PreserveAspect: 0
  m_FillCenter: 1
  m_FillMethod: 4
  m_FillAmount: 1
  m_FillClockwise: 1
  m_FillOrigin: 0
--- !u!222 &133967112
CanvasRenderer:
  m_ObjectHideFlags: 0
  m_PrefabParentObject: {fileID: 22224680, guid: 3aeb4f8df08b0bb49aacbc22c6bb3bd0,
    type: 2}
  m_PrefabInternal: {fileID: 1659269740}
  m_GameObject: {fileID: 133967109}
--- !u!1 &322686557
GameObject:
  m_ObjectHideFlags: 0
  m_PrefabParentObject: {fileID: 124684, guid: 3aeb4f8df08b0bb49aacbc22c6bb3bd0, type: 2}
  m_PrefabInternal: {fileID: 1659269740}
  serializedVersion: 5
  m_Component:
  - component: {fileID: 322686558}
  - component: {fileID: 322686560}
  - component: {fileID: 322686559}
  m_Layer: 5
  m_Name: Circle
  m_TagString: Untagged
  m_Icon: {fileID: 0}
  m_NavMeshLayer: 0
  m_StaticEditorFlags: 0
  m_IsActive: 1
--- !u!224 &322686558
RectTransform:
  m_ObjectHideFlags: 0
  m_PrefabParentObject: {fileID: 22424684, guid: 3aeb4f8df08b0bb49aacbc22c6bb3bd0,
    type: 2}
  m_PrefabInternal: {fileID: 1659269740}
  m_GameObject: {fileID: 322686557}
  m_LocalRotation: {x: 0, y: 0, z: 0, w: 1}
  m_LocalPosition: {x: 0, y: 0, z: 0}
  m_LocalScale: {x: 1, y: 1, z: 1}
  m_Children:
  - {fileID: 133967110}
  - {fileID: 1158359585}
  - {fileID: 856756877}
  - {fileID: 739711112}
  - {fileID: 1147194047}
  - {fileID: 871936669}
  - {fileID: 1349123600}
  - {fileID: 1320473953}
  - {fileID: 2095145437}
  - {fileID: 2018735163}
  - {fileID: 1397338441}
  - {fileID: 386186365}
  m_Father: {fileID: 671427525}
  m_RootOrder: 0
  m_LocalEulerAnglesHint: {x: 0, y: 0, z: 0}
  m_AnchorMin: {x: 0.5, y: 0.5}
  m_AnchorMax: {x: 0.5, y: 0.5}
  m_AnchoredPosition: {x: 0, y: 0}
  m_SizeDelta: {x: 106, y: 106}
  m_Pivot: {x: 0.5, y: 0.5}
--- !u!114 &322686559
MonoBehaviour:
  m_ObjectHideFlags: 0
  m_PrefabParentObject: {fileID: 11424688, guid: 3aeb4f8df08b0bb49aacbc22c6bb3bd0,
    type: 2}
  m_PrefabInternal: {fileID: 1659269740}
  m_GameObject: {fileID: 322686557}
  m_Enabled: 1
  m_EditorHideFlags: 0
  m_Script: {fileID: -765806418, guid: f5f67c52d1564df4a8936ccd202a3bd8, type: 3}
  m_Name: 
  m_EditorClassIdentifier: 
  m_Material: {fileID: 0}
  m_Color: {r: 0.18039216, g: 0.18039216, b: 0.18039216, a: 1}
  m_RaycastTarget: 1
  m_OnCullStateChanged:
    m_PersistentCalls:
      m_Calls: []
    m_TypeName: UnityEngine.UI.MaskableGraphic+CullStateChangedEvent, UnityEngine.UI,
      Version=1.0.0.0, Culture=neutral, PublicKeyToken=null
  m_Sprite: {fileID: 21300000, guid: 86c50c842fc5e5548b6a6e876c645ee0, type: 3}
  m_Type: 0
  m_PreserveAspect: 0
  m_FillCenter: 1
  m_FillMethod: 4
  m_FillAmount: 1
  m_FillClockwise: 1
  m_FillOrigin: 0
--- !u!222 &322686560
CanvasRenderer:
  m_ObjectHideFlags: 0
  m_PrefabParentObject: {fileID: 22224684, guid: 3aeb4f8df08b0bb49aacbc22c6bb3bd0,
    type: 2}
  m_PrefabInternal: {fileID: 1659269740}
  m_GameObject: {fileID: 322686557}
--- !u!1 &386186364
GameObject:
  m_ObjectHideFlags: 0
  m_PrefabParentObject: {fileID: 124658, guid: 3aeb4f8df08b0bb49aacbc22c6bb3bd0, type: 2}
  m_PrefabInternal: {fileID: 1659269740}
  serializedVersion: 5
  m_Component:
  - component: {fileID: 386186365}
  - component: {fileID: 386186367}
  - component: {fileID: 386186366}
  m_Layer: 5
  m_Name: Square
  m_TagString: Untagged
  m_Icon: {fileID: 0}
  m_NavMeshLayer: 0
  m_StaticEditorFlags: 0
  m_IsActive: 1
--- !u!224 &386186365
RectTransform:
  m_ObjectHideFlags: 0
  m_PrefabParentObject: {fileID: 22424658, guid: 3aeb4f8df08b0bb49aacbc22c6bb3bd0,
    type: 2}
  m_PrefabInternal: {fileID: 1659269740}
  m_GameObject: {fileID: 386186364}
  m_LocalRotation: {x: 0, y: 0, z: 0.38268292, w: 0.92387974}
  m_LocalPosition: {x: 0, y: 0, z: 0}
  m_LocalScale: {x: 1, y: 1, z: 1}
  m_Children: []
  m_Father: {fileID: 322686558}
  m_RootOrder: 11
  m_LocalEulerAnglesHint: {x: 0, y: 0, z: 0}
  m_AnchorMin: {x: 0.5, y: 0.5}
  m_AnchorMax: {x: 0.5, y: 0.5}
  m_AnchoredPosition: {x: -156.92311, y: -151.53839}
  m_SizeDelta: {x: 94, y: 23}
  m_Pivot: {x: 0.5, y: 0.5}
--- !u!114 &386186366
MonoBehaviour:
  m_ObjectHideFlags: 0
  m_PrefabParentObject: {fileID: 11424660, guid: 3aeb4f8df08b0bb49aacbc22c6bb3bd0,
    type: 2}
  m_PrefabInternal: {fileID: 1659269740}
  m_GameObject: {fileID: 386186364}
  m_Enabled: 1
  m_EditorHideFlags: 0
  m_Script: {fileID: -765806418, guid: f5f67c52d1564df4a8936ccd202a3bd8, type: 3}
  m_Name: 
  m_EditorClassIdentifier: 
  m_Material: {fileID: 0}
  m_Color: {r: 0.18039216, g: 0.18039216, b: 0.18039216, a: 1}
  m_RaycastTarget: 1
  m_OnCullStateChanged:
    m_PersistentCalls:
      m_Calls: []
    m_TypeName: UnityEngine.UI.MaskableGraphic+CullStateChangedEvent, UnityEngine.UI,
      Version=1.0.0.0, Culture=neutral, PublicKeyToken=null
  m_Sprite: {fileID: 21300000, guid: 7ed1238760b863f4aafde32ab3a6f28c, type: 3}
  m_Type: 1
  m_PreserveAspect: 0
  m_FillCenter: 1
  m_FillMethod: 4
  m_FillAmount: 1
  m_FillClockwise: 1
  m_FillOrigin: 0
--- !u!222 &386186367
CanvasRenderer:
  m_ObjectHideFlags: 0
  m_PrefabParentObject: {fileID: 22224658, guid: 3aeb4f8df08b0bb49aacbc22c6bb3bd0,
    type: 2}
  m_PrefabInternal: {fileID: 1659269740}
  m_GameObject: {fileID: 386186364}
--- !u!1 &414942786
GameObject:
  m_ObjectHideFlags: 0
  m_PrefabParentObject: {fileID: 124652, guid: 3aeb4f8df08b0bb49aacbc22c6bb3bd0, type: 2}
  m_PrefabInternal: {fileID: 1659269740}
  serializedVersion: 5
  m_Component:
  - component: {fileID: 414942787}
  - component: {fileID: 414942789}
  - component: {fileID: 414942788}
  m_Layer: 5
  m_Name: Square
  m_TagString: Untagged
  m_Icon: {fileID: 0}
  m_NavMeshLayer: 0
  m_StaticEditorFlags: 0
  m_IsActive: 1
--- !u!224 &414942787
RectTransform:
  m_ObjectHideFlags: 0
  m_PrefabParentObject: {fileID: 22424652, guid: 3aeb4f8df08b0bb49aacbc22c6bb3bd0,
    type: 2}
  m_PrefabInternal: {fileID: 1659269740}
  m_GameObject: {fileID: 414942786}
  m_LocalRotation: {x: 0, y: 0, z: 0.2619692, w: 0.96507627}
  m_LocalPosition: {x: 0, y: 0, z: 0}
  m_LocalScale: {x: 1, y: 1, z: 1}
  m_Children: []
  m_Father: {fileID: 30457041}
  m_RootOrder: 1
  m_LocalEulerAnglesHint: {x: 0, y: 0, z: 0}
  m_AnchorMin: {x: 0.5, y: 0.5}
  m_AnchorMax: {x: 0.5, y: 0.5}
  m_AnchoredPosition: {x: 10.922958, y: -6.592135}
  m_SizeDelta: {x: 10.7, y: 1.7}
  m_Pivot: {x: 0.5, y: 0.5}
--- !u!114 &414942788
MonoBehaviour:
  m_ObjectHideFlags: 0
  m_PrefabParentObject: {fileID: 11424654, guid: 3aeb4f8df08b0bb49aacbc22c6bb3bd0,
    type: 2}
  m_PrefabInternal: {fileID: 1659269740}
  m_GameObject: {fileID: 414942786}
  m_Enabled: 1
  m_EditorHideFlags: 0
  m_Script: {fileID: -765806418, guid: f5f67c52d1564df4a8936ccd202a3bd8, type: 3}
  m_Name: 
  m_EditorClassIdentifier: 
  m_Material: {fileID: 0}
  m_Color: {r: 0.94509804, g: 0.9254902, b: 0.8745098, a: 1}
  m_RaycastTarget: 1
  m_OnCullStateChanged:
    m_PersistentCalls:
      m_Calls: []
    m_TypeName: UnityEngine.UI.MaskableGraphic+CullStateChangedEvent, UnityEngine.UI,
      Version=1.0.0.0, Culture=neutral, PublicKeyToken=null
  m_Sprite: {fileID: 21300000, guid: 7ed1238760b863f4aafde32ab3a6f28c, type: 3}
  m_Type: 1
  m_PreserveAspect: 0
  m_FillCenter: 1
  m_FillMethod: 4
  m_FillAmount: 1
  m_FillClockwise: 1
  m_FillOrigin: 0
--- !u!222 &414942789
CanvasRenderer:
  m_ObjectHideFlags: 0
  m_PrefabParentObject: {fileID: 22224652, guid: 3aeb4f8df08b0bb49aacbc22c6bb3bd0,
    type: 2}
  m_PrefabInternal: {fileID: 1659269740}
  m_GameObject: {fileID: 414942786}
--- !u!1 &428282875
GameObject:
  m_ObjectHideFlags: 0
  m_PrefabParentObject: {fileID: 124648, guid: 3aeb4f8df08b0bb49aacbc22c6bb3bd0, type: 2}
  m_PrefabInternal: {fileID: 1659269740}
  serializedVersion: 5
  m_Component:
  - component: {fileID: 428282876}
  - component: {fileID: 428282878}
  - component: {fileID: 428282877}
  m_Layer: 5
  m_Name: Text
  m_TagString: Untagged
  m_Icon: {fileID: 0}
  m_NavMeshLayer: 0
  m_StaticEditorFlags: 0
  m_IsActive: 1
--- !u!224 &428282876
RectTransform:
  m_ObjectHideFlags: 0
  m_PrefabParentObject: {fileID: 22424648, guid: 3aeb4f8df08b0bb49aacbc22c6bb3bd0,
    type: 2}
  m_PrefabInternal: {fileID: 1659269740}
  m_GameObject: {fileID: 428282875}
  m_LocalRotation: {x: 0, y: 0, z: 0, w: 1}
  m_LocalPosition: {x: 0, y: 0, z: 0}
  m_LocalScale: {x: 1, y: 1, z: 1}
  m_Children: []
  m_Father: {fileID: 743606019}
  m_RootOrder: 0
  m_LocalEulerAnglesHint: {x: 0, y: 0, z: 0}
  m_AnchorMin: {x: 0.5, y: 0.5}
  m_AnchorMax: {x: 0.5, y: 0.5}
  m_AnchoredPosition: {x: 0, y: 0}
  m_SizeDelta: {x: 193, y: 64}
  m_Pivot: {x: 0.5, y: 0.5}
--- !u!114 &428282877
MonoBehaviour:
  m_ObjectHideFlags: 0
  m_PrefabParentObject: {fileID: 11424650, guid: 3aeb4f8df08b0bb49aacbc22c6bb3bd0,
    type: 2}
  m_PrefabInternal: {fileID: 1659269740}
  m_GameObject: {fileID: 428282875}
  m_Enabled: 1
  m_EditorHideFlags: 0
  m_Script: {fileID: 708705254, guid: f5f67c52d1564df4a8936ccd202a3bd8, type: 3}
  m_Name: 
  m_EditorClassIdentifier: 
  m_Material: {fileID: 0}
  m_Color: {r: 0.94509804, g: 0.9254902, b: 0.8745098, a: 1}
  m_RaycastTarget: 1
  m_OnCullStateChanged:
    m_PersistentCalls:
      m_Calls: []
    m_TypeName: UnityEngine.UI.MaskableGraphic+CullStateChangedEvent, UnityEngine.UI,
      Version=1.0.0.0, Culture=neutral, PublicKeyToken=null
  m_FontData:
    m_Font: {fileID: 12800000, guid: 7dfc2e1472ac84e1bb749a8a9f934483, type: 3}
    m_FontSize: 40
    m_FontStyle: 0
    m_BestFit: 0
    m_MinSize: 10
    m_MaxSize: 40
    m_Alignment: 4
    m_AlignByGeometry: 0
    m_RichText: 1
    m_HorizontalOverflow: 0
    m_VerticalOverflow: 0
    m_LineSpacing: 1
  m_Text: RESET
--- !u!222 &428282878
CanvasRenderer:
  m_ObjectHideFlags: 0
  m_PrefabParentObject: {fileID: 22224648, guid: 3aeb4f8df08b0bb49aacbc22c6bb3bd0,
    type: 2}
  m_PrefabInternal: {fileID: 1659269740}
  m_GameObject: {fileID: 428282875}
--- !u!1 &451306520
GameObject:
  m_ObjectHideFlags: 0
  m_PrefabParentObject: {fileID: 124686, guid: 3aeb4f8df08b0bb49aacbc22c6bb3bd0, type: 2}
  m_PrefabInternal: {fileID: 1659269740}
  serializedVersion: 5
  m_Component:
  - component: {fileID: 451306524}
  - component: {fileID: 451306523}
  - component: {fileID: 451306522}
  - component: {fileID: 451306521}
  m_Layer: 5
  m_Name: GameExample_22
  m_TagString: Untagged
  m_Icon: {fileID: 0}
  m_NavMeshLayer: 0
  m_StaticEditorFlags: 0
  m_IsActive: 1
--- !u!114 &451306521
MonoBehaviour:
  m_ObjectHideFlags: 0
  m_PrefabParentObject: {fileID: 11424690, guid: 3aeb4f8df08b0bb49aacbc22c6bb3bd0,
    type: 2}
  m_PrefabInternal: {fileID: 1659269740}
  m_GameObject: {fileID: 451306520}
  m_Enabled: 1
  m_EditorHideFlags: 0
  m_Script: {fileID: 1301386320, guid: f5f67c52d1564df4a8936ccd202a3bd8, type: 3}
  m_Name: 
  m_EditorClassIdentifier: 
  m_IgnoreReversedGraphics: 1
  m_BlockingObjects: 0
  m_BlockingMask:
    serializedVersion: 2
    m_Bits: 4294967295
--- !u!114 &451306522
MonoBehaviour:
  m_ObjectHideFlags: 0
  m_PrefabParentObject: {fileID: 11424692, guid: 3aeb4f8df08b0bb49aacbc22c6bb3bd0,
    type: 2}
  m_PrefabInternal: {fileID: 1659269740}
  m_GameObject: {fileID: 451306520}
  m_Enabled: 1
  m_EditorHideFlags: 0
  m_Script: {fileID: 1980459831, guid: f5f67c52d1564df4a8936ccd202a3bd8, type: 3}
  m_Name: 
  m_EditorClassIdentifier: 
  m_UiScaleMode: 1
  m_ReferencePixelsPerUnit: 100
  m_ScaleFactor: 1
  m_ReferenceResolution: {x: 640, y: 1136}
  m_ScreenMatchMode: 0
  m_MatchWidthOrHeight: 1
  m_PhysicalUnit: 3
  m_FallbackScreenDPI: 96
  m_DefaultSpriteDPI: 96
  m_DynamicPixelsPerUnit: 1
--- !u!223 &451306523
Canvas:
  m_ObjectHideFlags: 0
  m_PrefabParentObject: {fileID: 22324640, guid: 3aeb4f8df08b0bb49aacbc22c6bb3bd0,
    type: 2}
  m_PrefabInternal: {fileID: 1659269740}
  m_GameObject: {fileID: 451306520}
  m_Enabled: 1
  serializedVersion: 3
  m_RenderMode: 0
  m_Camera: {fileID: 0}
  m_PlaneDistance: 100
  m_PixelPerfect: 1
  m_ReceivesEvents: 1
  m_OverrideSorting: 0
  m_OverridePixelPerfect: 0
  m_SortingBucketNormalizedSize: 0
  m_AdditionalShaderChannelsFlag: 25
  m_SortingLayerID: 0
  m_SortingOrder: 0
  m_TargetDisplay: 0
--- !u!224 &451306524
RectTransform:
  m_ObjectHideFlags: 0
  m_PrefabParentObject: {fileID: 22424686, guid: 3aeb4f8df08b0bb49aacbc22c6bb3bd0,
    type: 2}
  m_PrefabInternal: {fileID: 1659269740}
  m_GameObject: {fileID: 451306520}
  m_LocalRotation: {x: 0, y: 0, z: 0, w: 1}
  m_LocalPosition: {x: 0, y: 0, z: 0}
  m_LocalScale: {x: 0, y: 0, z: 0}
  m_Children:
  - {fileID: 519044947}
  - {fileID: 1387383111}
  m_Father: {fileID: 0}
  m_RootOrder: 0
  m_LocalEulerAnglesHint: {x: 0, y: 0, z: 0}
  m_AnchorMin: {x: 0, y: 0}
  m_AnchorMax: {x: 0, y: 0}
  m_AnchoredPosition: {x: 0, y: 0}
  m_SizeDelta: {x: 0, y: 0}
  m_Pivot: {x: 0, y: 0}
--- !u!1 &519044946
GameObject:
  m_ObjectHideFlags: 0
  m_PrefabParentObject: {fileID: 124660, guid: 3aeb4f8df08b0bb49aacbc22c6bb3bd0, type: 2}
  m_PrefabInternal: {fileID: 1659269740}
  serializedVersion: 5
  m_Component:
  - component: {fileID: 519044947}
  - component: {fileID: 519044949}
  - component: {fileID: 519044948}
  m_Layer: 5
  m_Name: AppTitle
  m_TagString: Untagged
  m_Icon: {fileID: 0}
  m_NavMeshLayer: 0
  m_StaticEditorFlags: 0
  m_IsActive: 1
--- !u!224 &519044947
RectTransform:
  m_ObjectHideFlags: 0
  m_PrefabParentObject: {fileID: 22424660, guid: 3aeb4f8df08b0bb49aacbc22c6bb3bd0,
    type: 2}
  m_PrefabInternal: {fileID: 1659269740}
  m_GameObject: {fileID: 519044946}
  m_LocalRotation: {x: 0, y: 0, z: 0, w: 1}
  m_LocalPosition: {x: 0, y: 0, z: 0}
  m_LocalScale: {x: 1, y: 1, z: 1}
  m_Children:
  - {fileID: 531999852}
  m_Father: {fileID: 451306524}
  m_RootOrder: 0
  m_LocalEulerAnglesHint: {x: 0, y: 0, z: 0}
  m_AnchorMin: {x: 0.5, y: 0.5}
  m_AnchorMax: {x: 0.5, y: 0.5}
  m_AnchoredPosition: {x: 27.495, y: 633}
  m_SizeDelta: {x: 695, y: 109}
  m_Pivot: {x: 0.5, y: 0.5}
--- !u!114 &519044948
MonoBehaviour:
  m_ObjectHideFlags: 0
  m_PrefabParentObject: {fileID: 11424662, guid: 3aeb4f8df08b0bb49aacbc22c6bb3bd0,
    type: 2}
  m_PrefabInternal: {fileID: 1659269740}
  m_GameObject: {fileID: 519044946}
  m_Enabled: 1
  m_EditorHideFlags: 0
  m_Script: {fileID: 708705254, guid: f5f67c52d1564df4a8936ccd202a3bd8, type: 3}
  m_Name: 
  m_EditorClassIdentifier: 
  m_Material: {fileID: 0}
  m_Color: {r: 0.85490197, g: 0.85490197, b: 0.85490197, a: 1}
  m_RaycastTarget: 1
  m_OnCullStateChanged:
    m_PersistentCalls:
      m_Calls: []
    m_TypeName: UnityEngine.UI.MaskableGraphic+CullStateChangedEvent, UnityEngine.UI,
      Version=1.0.0.0, Culture=neutral, PublicKeyToken=null
  m_FontData:
    m_Font: {fileID: 12800000, guid: 218956a5c2a6e42d6a60afccf80b002b, type: 3}
    m_FontSize: 102
    m_FontStyle: 0
    m_BestFit: 0
    m_MinSize: 10
    m_MaxSize: 102
    m_Alignment: 0
    m_AlignByGeometry: 0
    m_RichText: 1
    m_HorizontalOverflow: 0
    m_VerticalOverflow: 1
    m_LineSpacing: 1
  m_Text: GAME
--- !u!222 &519044949
CanvasRenderer:
  m_ObjectHideFlags: 0
  m_PrefabParentObject: {fileID: 22224660, guid: 3aeb4f8df08b0bb49aacbc22c6bb3bd0,
    type: 2}
  m_PrefabInternal: {fileID: 1659269740}
  m_GameObject: {fileID: 519044946}
--- !u!1 &531999851
GameObject:
  m_ObjectHideFlags: 0
  m_PrefabParentObject: {fileID: 124678, guid: 3aeb4f8df08b0bb49aacbc22c6bb3bd0, type: 2}
  m_PrefabInternal: {fileID: 1659269740}
  serializedVersion: 5
  m_Component:
  - component: {fileID: 531999852}
  - component: {fileID: 531999854}
  - component: {fileID: 531999853}
  m_Layer: 5
  m_Name: AppTitle
  m_TagString: Untagged
  m_Icon: {fileID: 0}
  m_NavMeshLayer: 0
  m_StaticEditorFlags: 0
  m_IsActive: 1
--- !u!224 &531999852
RectTransform:
  m_ObjectHideFlags: 0
  m_PrefabParentObject: {fileID: 22424678, guid: 3aeb4f8df08b0bb49aacbc22c6bb3bd0,
    type: 2}
  m_PrefabInternal: {fileID: 1659269740}
  m_GameObject: {fileID: 531999851}
  m_LocalRotation: {x: 0, y: 0, z: 0, w: 1}
  m_LocalPosition: {x: 0, y: 0, z: 0}
  m_LocalScale: {x: 1, y: 1, z: 1}
  m_Children: []
  m_Father: {fileID: 519044947}
  m_RootOrder: 0
  m_LocalEulerAnglesHint: {x: 0, y: 0, z: 0}
  m_AnchorMin: {x: 0.5, y: 0.5}
  m_AnchorMax: {x: 0.5, y: 0.5}
  m_AnchoredPosition: {x: 295, y: -68}
  m_SizeDelta: {x: 695, y: 109}
  m_Pivot: {x: 0.5, y: 0.5}
--- !u!114 &531999853
MonoBehaviour:
  m_ObjectHideFlags: 0
  m_PrefabParentObject: {fileID: 11424682, guid: 3aeb4f8df08b0bb49aacbc22c6bb3bd0,
    type: 2}
  m_PrefabInternal: {fileID: 1659269740}
  m_GameObject: {fileID: 531999851}
  m_Enabled: 1
  m_EditorHideFlags: 0
  m_Script: {fileID: 708705254, guid: f5f67c52d1564df4a8936ccd202a3bd8, type: 3}
  m_Name: 
  m_EditorClassIdentifier: 
  m_Material: {fileID: 0}
  m_Color: {r: 0.85490197, g: 0.85490197, b: 0.85490197, a: 1}
  m_RaycastTarget: 1
  m_OnCullStateChanged:
    m_PersistentCalls:
      m_Calls: []
    m_TypeName: UnityEngine.UI.MaskableGraphic+CullStateChangedEvent, UnityEngine.UI,
      Version=1.0.0.0, Culture=neutral, PublicKeyToken=null
  m_FontData:
    m_Font: {fileID: 12800000, guid: 218956a5c2a6e42d6a60afccf80b002b, type: 3}
    m_FontSize: 40
    m_FontStyle: 0
    m_BestFit: 0
    m_MinSize: 10
    m_MaxSize: 40
    m_Alignment: 0
    m_AlignByGeometry: 0
    m_RichText: 1
    m_HorizontalOverflow: 0
    m_VerticalOverflow: 1
    m_LineSpacing: 1
  m_Text: EXAMPLE
--- !u!222 &531999854
CanvasRenderer:
  m_ObjectHideFlags: 0
  m_PrefabParentObject: {fileID: 22224678, guid: 3aeb4f8df08b0bb49aacbc22c6bb3bd0,
    type: 2}
  m_PrefabInternal: {fileID: 1659269740}
  m_GameObject: {fileID: 531999851}
--- !u!1 &671427524
GameObject:
  m_ObjectHideFlags: 0
  m_PrefabParentObject: {fileID: 124654, guid: 3aeb4f8df08b0bb49aacbc22c6bb3bd0, type: 2}
  m_PrefabInternal: {fileID: 1659269740}
  serializedVersion: 5
  m_Component:
  - component: {fileID: 671427525}
  - component: {fileID: 671427527}
  - component: {fileID: 671427526}
  m_Layer: 5
  m_Name: CircleMap
  m_TagString: Untagged
  m_Icon: {fileID: 0}
  m_NavMeshLayer: 0
  m_StaticEditorFlags: 0
  m_IsActive: 1
--- !u!224 &671427525
RectTransform:
  m_ObjectHideFlags: 0
  m_PrefabParentObject: {fileID: 22424654, guid: 3aeb4f8df08b0bb49aacbc22c6bb3bd0,
    type: 2}
  m_PrefabInternal: {fileID: 1659269740}
  m_GameObject: {fileID: 671427524}
  m_LocalRotation: {x: 0, y: 0, z: 0, w: 1}
  m_LocalPosition: {x: 0, y: 0, z: 0}
  m_LocalScale: {x: 1.3, y: 1.3, z: 1}
  m_Children:
  - {fileID: 322686558}
  - {fileID: 30457041}
  - {fileID: 827646677}
  m_Father: {fileID: 1387383111}
  m_RootOrder: 1
  m_LocalEulerAnglesHint: {x: 0, y: 0, z: 0}
  m_AnchorMin: {x: 0.5, y: 0.5}
  m_AnchorMax: {x: 0.5, y: 0.5}
  m_AnchoredPosition: {x: 0, y: 0}
  m_SizeDelta: {x: 441, y: 441}
  m_Pivot: {x: 0.5, y: 0.5}
--- !u!114 &671427526
MonoBehaviour:
  m_ObjectHideFlags: 0
  m_PrefabParentObject: {fileID: 11424656, guid: 3aeb4f8df08b0bb49aacbc22c6bb3bd0,
    type: 2}
  m_PrefabInternal: {fileID: 1659269740}
  m_GameObject: {fileID: 671427524}
  m_Enabled: 1
  m_EditorHideFlags: 0
  m_Script: {fileID: -765806418, guid: f5f67c52d1564df4a8936ccd202a3bd8, type: 3}
  m_Name: 
  m_EditorClassIdentifier: 
  m_Material: {fileID: 0}
  m_Color: {r: 0.9490196, g: 0.92941177, b: 0.8784314, a: 1}
  m_RaycastTarget: 1
  m_OnCullStateChanged:
    m_PersistentCalls:
      m_Calls: []
    m_TypeName: UnityEngine.UI.MaskableGraphic+CullStateChangedEvent, UnityEngine.UI,
      Version=1.0.0.0, Culture=neutral, PublicKeyToken=null
  m_Sprite: {fileID: 21300000, guid: 86c50c842fc5e5548b6a6e876c645ee0, type: 3}
  m_Type: 0
  m_PreserveAspect: 0
  m_FillCenter: 1
  m_FillMethod: 4
  m_FillAmount: 1
  m_FillClockwise: 1
  m_FillOrigin: 0
--- !u!222 &671427527
CanvasRenderer:
  m_ObjectHideFlags: 0
  m_PrefabParentObject: {fileID: 22224654, guid: 3aeb4f8df08b0bb49aacbc22c6bb3bd0,
    type: 2}
  m_PrefabInternal: {fileID: 1659269740}
  m_GameObject: {fileID: 671427524}
--- !u!1 &739711111
GameObject:
  m_ObjectHideFlags: 0
  m_PrefabParentObject: {fileID: 124644, guid: 3aeb4f8df08b0bb49aacbc22c6bb3bd0, type: 2}
  m_PrefabInternal: {fileID: 1659269740}
  serializedVersion: 5
  m_Component:
  - component: {fileID: 739711112}
  - component: {fileID: 739711114}
  - component: {fileID: 739711113}
  m_Layer: 5
  m_Name: Square
  m_TagString: Untagged
  m_Icon: {fileID: 0}
  m_NavMeshLayer: 0
  m_StaticEditorFlags: 0
  m_IsActive: 1
--- !u!224 &739711112
RectTransform:
  m_ObjectHideFlags: 0
  m_PrefabParentObject: {fileID: 22424644, guid: 3aeb4f8df08b0bb49aacbc22c6bb3bd0,
    type: 2}
  m_PrefabInternal: {fileID: 1659269740}
  m_GameObject: {fileID: 739711111}
  m_LocalRotation: {x: 0, y: 0, z: 0.38268292, w: 0.92387974}
  m_LocalPosition: {x: 0, y: 0, z: 0}
  m_LocalScale: {x: 1, y: 1, z: 1}
  m_Children: []
  m_Father: {fileID: 322686558}
  m_RootOrder: 3
  m_LocalEulerAnglesHint: {x: 0, y: 0, z: 0}
  m_AnchorMin: {x: 0.5, y: 0.5}
  m_AnchorMax: {x: 0.5, y: 0.5}
  m_AnchoredPosition: {x: -31.538424, y: -28.461464}
  m_SizeDelta: {x: 94, y: 23}
  m_Pivot: {x: 0.5, y: 0.5}
--- !u!114 &739711113
MonoBehaviour:
  m_ObjectHideFlags: 0
  m_PrefabParentObject: {fileID: 11424646, guid: 3aeb4f8df08b0bb49aacbc22c6bb3bd0,
    type: 2}
  m_PrefabInternal: {fileID: 1659269740}
  m_GameObject: {fileID: 739711111}
  m_Enabled: 1
  m_EditorHideFlags: 0
  m_Script: {fileID: -765806418, guid: f5f67c52d1564df4a8936ccd202a3bd8, type: 3}
  m_Name: 
  m_EditorClassIdentifier: 
  m_Material: {fileID: 0}
  m_Color: {r: 0.18039216, g: 0.18039216, b: 0.18039216, a: 1}
  m_RaycastTarget: 1
  m_OnCullStateChanged:
    m_PersistentCalls:
      m_Calls: []
    m_TypeName: UnityEngine.UI.MaskableGraphic+CullStateChangedEvent, UnityEngine.UI,
      Version=1.0.0.0, Culture=neutral, PublicKeyToken=null
  m_Sprite: {fileID: 21300000, guid: 7ed1238760b863f4aafde32ab3a6f28c, type: 3}
  m_Type: 1
  m_PreserveAspect: 0
  m_FillCenter: 1
  m_FillMethod: 4
  m_FillAmount: 1
  m_FillClockwise: 1
  m_FillOrigin: 0
--- !u!222 &739711114
CanvasRenderer:
  m_ObjectHideFlags: 0
  m_PrefabParentObject: {fileID: 22224644, guid: 3aeb4f8df08b0bb49aacbc22c6bb3bd0,
    type: 2}
  m_PrefabInternal: {fileID: 1659269740}
  m_GameObject: {fileID: 739711111}
--- !u!1 &743606018
GameObject:
  m_ObjectHideFlags: 0
  m_PrefabParentObject: {fileID: 124664, guid: 3aeb4f8df08b0bb49aacbc22c6bb3bd0, type: 2}
  m_PrefabInternal: {fileID: 1659269740}
  serializedVersion: 5
  m_Component:
  - component: {fileID: 743606019}
  - component: {fileID: 743606022}
  - component: {fileID: 743606021}
  - component: {fileID: 743606020}
  m_Layer: 5
  m_Name: Button
  m_TagString: Untagged
  m_Icon: {fileID: 0}
  m_NavMeshLayer: 0
  m_StaticEditorFlags: 0
  m_IsActive: 1
--- !u!224 &743606019
RectTransform:
  m_ObjectHideFlags: 0
  m_PrefabParentObject: {fileID: 22424664, guid: 3aeb4f8df08b0bb49aacbc22c6bb3bd0,
    type: 2}
  m_PrefabInternal: {fileID: 1659269740}
  m_GameObject: {fileID: 743606018}
  m_LocalRotation: {x: 0, y: 0, z: 0, w: 1}
  m_LocalPosition: {x: 0, y: 0, z: 0}
  m_LocalScale: {x: 1, y: 1, z: 1}
  m_Children:
  - {fileID: 428282876}
  m_Father: {fileID: 1387383111}
  m_RootOrder: 2
  m_LocalEulerAnglesHint: {x: 0, y: 0, z: 0}
  m_AnchorMin: {x: 0.5, y: 0.5}
  m_AnchorMax: {x: 0.5, y: 0.5}
  m_AnchoredPosition: {x: 0, y: -423.99988}
  m_SizeDelta: {x: 273, y: 100}
  m_Pivot: {x: 0.5, y: 0.5}
--- !u!114 &743606020
MonoBehaviour:
  m_ObjectHideFlags: 0
  m_PrefabParentObject: {fileID: 11424640, guid: 3aeb4f8df08b0bb49aacbc22c6bb3bd0,
    type: 2}
  m_PrefabInternal: {fileID: 1659269740}
  m_GameObject: {fileID: 743606018}
  m_Enabled: 1
  m_EditorHideFlags: 0
  m_Script: {fileID: 1392445389, guid: f5f67c52d1564df4a8936ccd202a3bd8, type: 3}
  m_Name: 
  m_EditorClassIdentifier: 
  m_Navigation:
    m_Mode: 3
    m_SelectOnUp: {fileID: 0}
    m_SelectOnDown: {fileID: 0}
    m_SelectOnLeft: {fileID: 0}
    m_SelectOnRight: {fileID: 0}
  m_Transition: 1
  m_Colors:
    m_NormalColor: {r: 1, g: 1, b: 1, a: 1}
    m_HighlightedColor: {r: 0.9607843, g: 0.9607843, b: 0.9607843, a: 1}
    m_PressedColor: {r: 0.78431374, g: 0.78431374, b: 0.78431374, a: 1}
    m_DisabledColor: {r: 0.78431374, g: 0.78431374, b: 0.78431374, a: 0.5019608}
    m_ColorMultiplier: 1
    m_FadeDuration: 0.1
  m_SpriteState:
    m_HighlightedSprite: {fileID: 0}
    m_PressedSprite: {fileID: 0}
    m_DisabledSprite: {fileID: 0}
  m_AnimationTriggers:
    m_NormalTrigger: Normal
    m_HighlightedTrigger: Highlighted
    m_PressedTrigger: Pressed
    m_DisabledTrigger: Disabled
  m_Interactable: 1
  m_TargetGraphic: {fileID: 743606021}
  m_OnClick:
    m_PersistentCalls:
      m_Calls: []
    m_TypeName: UnityEngine.UI.Button+ButtonClickedEvent, UnityEngine.UI, Version=1.0.0.0,
      Culture=neutral, PublicKeyToken=null
--- !u!114 &743606021
MonoBehaviour:
  m_ObjectHideFlags: 0
  m_PrefabParentObject: {fileID: 11424666, guid: 3aeb4f8df08b0bb49aacbc22c6bb3bd0,
    type: 2}
  m_PrefabInternal: {fileID: 1659269740}
  m_GameObject: {fileID: 743606018}
  m_Enabled: 1
  m_EditorHideFlags: 0
  m_Script: {fileID: -765806418, guid: f5f67c52d1564df4a8936ccd202a3bd8, type: 3}
  m_Name: 
  m_EditorClassIdentifier: 
  m_Material: {fileID: 0}
  m_Color: {r: 0.99215686, g: 0.30588236, b: 0.30588236, a: 1}
  m_RaycastTarget: 1
  m_OnCullStateChanged:
    m_PersistentCalls:
      m_Calls: []
    m_TypeName: UnityEngine.UI.MaskableGraphic+CullStateChangedEvent, UnityEngine.UI,
      Version=1.0.0.0, Culture=neutral, PublicKeyToken=null
  m_Sprite: {fileID: 21300000, guid: d933e3d481575ca4b8c63bf881596b5f, type: 3}
  m_Type: 0
  m_PreserveAspect: 0
  m_FillCenter: 1
  m_FillMethod: 4
  m_FillAmount: 1
  m_FillClockwise: 1
  m_FillOrigin: 0
--- !u!222 &743606022
CanvasRenderer:
  m_ObjectHideFlags: 0
  m_PrefabParentObject: {fileID: 22224664, guid: 3aeb4f8df08b0bb49aacbc22c6bb3bd0,
    type: 2}
  m_PrefabInternal: {fileID: 1659269740}
  m_GameObject: {fileID: 743606018}
--- !u!1 &827646676
GameObject:
  m_ObjectHideFlags: 0
  m_PrefabParentObject: {fileID: 124670, guid: 3aeb4f8df08b0bb49aacbc22c6bb3bd0, type: 2}
  m_PrefabInternal: {fileID: 1659269740}
  serializedVersion: 5
  m_Component:
  - component: {fileID: 827646677}
  - component: {fileID: 827646679}
  - component: {fileID: 827646678}
  m_Layer: 5
  m_Name: Circle
  m_TagString: Untagged
  m_Icon: {fileID: 0}
  m_NavMeshLayer: 0
  m_StaticEditorFlags: 0
  m_IsActive: 1
--- !u!224 &827646677
RectTransform:
  m_ObjectHideFlags: 0
  m_PrefabParentObject: {fileID: 22424670, guid: 3aeb4f8df08b0bb49aacbc22c6bb3bd0,
    type: 2}
  m_PrefabInternal: {fileID: 1659269740}
  m_GameObject: {fileID: 827646676}
  m_LocalRotation: {x: 0, y: 0, z: 0, w: 1}
  m_LocalPosition: {x: 0, y: 0, z: 0}
  m_LocalScale: {x: 1, y: 1, z: 1}
  m_Children: []
  m_Father: {fileID: 671427525}
  m_RootOrder: 2
  m_LocalEulerAnglesHint: {x: 0, y: 0, z: 0}
  m_AnchorMin: {x: 0.5, y: 0.5}
  m_AnchorMax: {x: 0.5, y: 0.5}
  m_AnchoredPosition: {x: 0, y: 0}
  m_SizeDelta: {x: 471, y: 471}
  m_Pivot: {x: 0.5, y: 0.5}
--- !u!114 &827646678
MonoBehaviour:
  m_ObjectHideFlags: 0
  m_PrefabParentObject: {fileID: 11424674, guid: 3aeb4f8df08b0bb49aacbc22c6bb3bd0,
    type: 2}
  m_PrefabInternal: {fileID: 1659269740}
  m_GameObject: {fileID: 827646676}
  m_Enabled: 1
  m_EditorHideFlags: 0
  m_Script: {fileID: -765806418, guid: f5f67c52d1564df4a8936ccd202a3bd8, type: 3}
  m_Name: 
  m_EditorClassIdentifier: 
  m_Material: {fileID: 0}
  m_Color: {r: 0.99607843, g: 0.30588236, b: 0.30588236, a: 1}
  m_RaycastTarget: 1
  m_OnCullStateChanged:
    m_PersistentCalls:
      m_Calls: []
    m_TypeName: UnityEngine.UI.MaskableGraphic+CullStateChangedEvent, UnityEngine.UI,
      Version=1.0.0.0, Culture=neutral, PublicKeyToken=null
  m_Sprite: {fileID: 21300000, guid: 670e88da7636bb74c9486ebfd1b9b50a, type: 3}
  m_Type: 0
  m_PreserveAspect: 0
  m_FillCenter: 1
  m_FillMethod: 4
  m_FillAmount: 1
  m_FillClockwise: 1
  m_FillOrigin: 0
--- !u!222 &827646679
CanvasRenderer:
  m_ObjectHideFlags: 0
  m_PrefabParentObject: {fileID: 22224670, guid: 3aeb4f8df08b0bb49aacbc22c6bb3bd0,
    type: 2}
  m_PrefabInternal: {fileID: 1659269740}
  m_GameObject: {fileID: 827646676}
--- !u!1 &856756876
GameObject:
  m_ObjectHideFlags: 0
  m_PrefabParentObject: {fileID: 124672, guid: 3aeb4f8df08b0bb49aacbc22c6bb3bd0, type: 2}
  m_PrefabInternal: {fileID: 1659269740}
  serializedVersion: 5
  m_Component:
  - component: {fileID: 856756877}
  - component: {fileID: 856756879}
  - component: {fileID: 856756878}
  m_Layer: 5
  m_Name: Square
  m_TagString: Untagged
  m_Icon: {fileID: 0}
  m_NavMeshLayer: 0
  m_StaticEditorFlags: 0
  m_IsActive: 1
--- !u!224 &856756877
RectTransform:
  m_ObjectHideFlags: 0
  m_PrefabParentObject: {fileID: 22424672, guid: 3aeb4f8df08b0bb49aacbc22c6bb3bd0,
    type: 2}
  m_PrefabInternal: {fileID: 1659269740}
  m_GameObject: {fileID: 856756876}
  m_LocalRotation: {x: 0, y: 0, z: 0.3826835, w: 0.92387956}
  m_LocalPosition: {x: 0, y: 0, z: 0}
  m_LocalScale: {x: 1, y: 1, z: 1}
  m_Children: []
  m_Father: {fileID: 322686558}
  m_RootOrder: 2
  m_LocalEulerAnglesHint: {x: 0, y: 0, z: 0}
  m_AnchorMin: {x: 0.5, y: 0.5}
  m_AnchorMax: {x: 0.5, y: 0.5}
  m_AnchoredPosition: {x: 176.84598, y: 177.76918}
  m_SizeDelta: {x: 95.1, y: 18.9}
  m_Pivot: {x: 0.5, y: 0.5}
--- !u!114 &856756878
MonoBehaviour:
  m_ObjectHideFlags: 0
  m_PrefabParentObject: {fileID: 11424676, guid: 3aeb4f8df08b0bb49aacbc22c6bb3bd0,
    type: 2}
  m_PrefabInternal: {fileID: 1659269740}
  m_GameObject: {fileID: 856756876}
  m_Enabled: 1
  m_EditorHideFlags: 0
  m_Script: {fileID: -765806418, guid: f5f67c52d1564df4a8936ccd202a3bd8, type: 3}
  m_Name: 
  m_EditorClassIdentifier: 
  m_Material: {fileID: 0}
  m_Color: {r: 0.18039216, g: 0.18039216, b: 0.18039216, a: 1}
  m_RaycastTarget: 1
  m_OnCullStateChanged:
    m_PersistentCalls:
      m_Calls: []
    m_TypeName: UnityEngine.UI.MaskableGraphic+CullStateChangedEvent, UnityEngine.UI,
      Version=1.0.0.0, Culture=neutral, PublicKeyToken=null
  m_Sprite: {fileID: 21300000, guid: 7ed1238760b863f4aafde32ab3a6f28c, type: 3}
  m_Type: 1
  m_PreserveAspect: 0
  m_FillCenter: 1
  m_FillMethod: 4
  m_FillAmount: 1
  m_FillClockwise: 1
  m_FillOrigin: 0
--- !u!222 &856756879
CanvasRenderer:
  m_ObjectHideFlags: 0
  m_PrefabParentObject: {fileID: 22224672, guid: 3aeb4f8df08b0bb49aacbc22c6bb3bd0,
    type: 2}
  m_PrefabInternal: {fileID: 1659269740}
  m_GameObject: {fileID: 856756876}
--- !u!1 &871936668
GameObject:
  m_ObjectHideFlags: 0
  m_PrefabParentObject: {fileID: 124642, guid: 3aeb4f8df08b0bb49aacbc22c6bb3bd0, type: 2}
  m_PrefabInternal: {fileID: 1659269740}
  serializedVersion: 5
  m_Component:
  - component: {fileID: 871936669}
  - component: {fileID: 871936671}
  - component: {fileID: 871936670}
  m_Layer: 5
  m_Name: Square
  m_TagString: Untagged
  m_Icon: {fileID: 0}
  m_NavMeshLayer: 0
  m_StaticEditorFlags: 0
  m_IsActive: 1
--- !u!224 &871936669
RectTransform:
  m_ObjectHideFlags: 0
  m_PrefabParentObject: {fileID: 22424642, guid: 3aeb4f8df08b0bb49aacbc22c6bb3bd0,
    type: 2}
  m_PrefabInternal: {fileID: 1659269740}
  m_GameObject: {fileID: 871936668}
  m_LocalRotation: {x: 0, y: 0, z: 0, w: 1}
  m_LocalPosition: {x: 0, y: 0, z: 0}
  m_LocalScale: {x: 1, y: 1, z: 1}
  m_Children: []
  m_Father: {fileID: 322686558}
  m_RootOrder: 5
  m_LocalEulerAnglesHint: {x: 0, y: 0, z: 0}
  m_AnchorMin: {x: 0.5, y: 0.5}
  m_AnchorMax: {x: 0.5, y: 0.5}
  m_AnchoredPosition: {x: 226.38477, y: 0}
  m_SizeDelta: {x: 93.423, y: 18.9}
  m_Pivot: {x: 0.5, y: 0.5}
--- !u!114 &871936670
MonoBehaviour:
  m_ObjectHideFlags: 0
  m_PrefabParentObject: {fileID: 11424644, guid: 3aeb4f8df08b0bb49aacbc22c6bb3bd0,
    type: 2}
  m_PrefabInternal: {fileID: 1659269740}
  m_GameObject: {fileID: 871936668}
  m_Enabled: 1
  m_EditorHideFlags: 0
  m_Script: {fileID: -765806418, guid: f5f67c52d1564df4a8936ccd202a3bd8, type: 3}
  m_Name: 
  m_EditorClassIdentifier: 
  m_Material: {fileID: 0}
  m_Color: {r: 0.18039216, g: 0.18039216, b: 0.18039216, a: 1}
  m_RaycastTarget: 1
  m_OnCullStateChanged:
    m_PersistentCalls:
      m_Calls: []
    m_TypeName: UnityEngine.UI.MaskableGraphic+CullStateChangedEvent, UnityEngine.UI,
      Version=1.0.0.0, Culture=neutral, PublicKeyToken=null
  m_Sprite: {fileID: 21300000, guid: 7ed1238760b863f4aafde32ab3a6f28c, type: 3}
  m_Type: 1
  m_PreserveAspect: 0
  m_FillCenter: 1
  m_FillMethod: 4
  m_FillAmount: 1
  m_FillClockwise: 1
  m_FillOrigin: 0
--- !u!222 &871936671
CanvasRenderer:
  m_ObjectHideFlags: 0
  m_PrefabParentObject: {fileID: 22224642, guid: 3aeb4f8df08b0bb49aacbc22c6bb3bd0,
    type: 2}
  m_PrefabInternal: {fileID: 1659269740}
  m_GameObject: {fileID: 871936668}
--- !u!1 &876830414
GameObject:
  m_ObjectHideFlags: 0
  m_PrefabParentObject: {fileID: 124662, guid: 3aeb4f8df08b0bb49aacbc22c6bb3bd0, type: 2}
  m_PrefabInternal: {fileID: 1659269740}
  serializedVersion: 5
  m_Component:
  - component: {fileID: 876830415}
  - component: {fileID: 876830417}
  - component: {fileID: 876830416}
  m_Layer: 5
  m_Name: Text
  m_TagString: Untagged
  m_Icon: {fileID: 0}
  m_NavMeshLayer: 0
  m_StaticEditorFlags: 0
  m_IsActive: 1
--- !u!224 &876830415
RectTransform:
  m_ObjectHideFlags: 0
  m_PrefabParentObject: {fileID: 22424662, guid: 3aeb4f8df08b0bb49aacbc22c6bb3bd0,
    type: 2}
  m_PrefabInternal: {fileID: 1659269740}
  m_GameObject: {fileID: 876830414}
  m_LocalRotation: {x: 0, y: 0, z: 0, w: 1}
  m_LocalPosition: {x: 0, y: 0, z: 0}
  m_LocalScale: {x: 0.8, y: 0.8, z: 1}
  m_Children: []
  m_Father: {fileID: 1387383111}
  m_RootOrder: 0
  m_LocalEulerAnglesHint: {x: 0, y: 0, z: 0}
  m_AnchorMin: {x: 0.5, y: 0.5}
  m_AnchorMax: {x: 0.5, y: 0.5}
  m_AnchoredPosition: {x: -0.000002861, y: 431}
  m_SizeDelta: {x: 640, y: 211}
  m_Pivot: {x: 0.5, y: 0.5}
--- !u!114 &876830416
MonoBehaviour:
  m_ObjectHideFlags: 0
  m_PrefabParentObject: {fileID: 11424664, guid: 3aeb4f8df08b0bb49aacbc22c6bb3bd0,
    type: 2}
  m_PrefabInternal: {fileID: 1659269740}
  m_GameObject: {fileID: 876830414}
  m_Enabled: 1
  m_EditorHideFlags: 0
  m_Script: {fileID: 708705254, guid: f5f67c52d1564df4a8936ccd202a3bd8, type: 3}
  m_Name: 
  m_EditorClassIdentifier: 
  m_Material: {fileID: 0}
  m_Color: {r: 0.99215686, g: 0.30588236, b: 0.30588236, a: 1}
  m_RaycastTarget: 1
  m_OnCullStateChanged:
    m_PersistentCalls:
      m_Calls: []
    m_TypeName: UnityEngine.UI.MaskableGraphic+CullStateChangedEvent, UnityEngine.UI,
      Version=1.0.0.0, Culture=neutral, PublicKeyToken=null
  m_FontData:
    m_Font: {fileID: 12800000, guid: 7dfc2e1472ac84e1bb749a8a9f934483, type: 3}
    m_FontSize: 80
    m_FontStyle: 0
    m_BestFit: 0
    m_MinSize: 10
    m_MaxSize: 80
    m_Alignment: 4
    m_AlignByGeometry: 0
    m_RichText: 1
    m_HorizontalOverflow: 0
    m_VerticalOverflow: 0
    m_LineSpacing: 1
  m_Text: CIRCLE KILLER
--- !u!222 &876830417
CanvasRenderer:
  m_ObjectHideFlags: 0
  m_PrefabParentObject: {fileID: 22224662, guid: 3aeb4f8df08b0bb49aacbc22c6bb3bd0,
    type: 2}
  m_PrefabInternal: {fileID: 1659269740}
  m_GameObject: {fileID: 876830414}
--- !u!1 &956454501
GameObject:
  m_ObjectHideFlags: 0
  m_PrefabParentObject: {fileID: 124650, guid: 3aeb4f8df08b0bb49aacbc22c6bb3bd0, type: 2}
  m_PrefabInternal: {fileID: 1659269740}
  serializedVersion: 5
  m_Component:
  - component: {fileID: 956454502}
  - component: {fileID: 956454504}
  - component: {fileID: 956454503}
  m_Layer: 5
  m_Name: Square
  m_TagString: Untagged
  m_Icon: {fileID: 0}
  m_NavMeshLayer: 0
  m_StaticEditorFlags: 0
  m_IsActive: 1
--- !u!224 &956454502
RectTransform:
  m_ObjectHideFlags: 0
  m_PrefabParentObject: {fileID: 22424650, guid: 3aeb4f8df08b0bb49aacbc22c6bb3bd0,
    type: 2}
  m_PrefabInternal: {fileID: 1659269740}
  m_GameObject: {fileID: 956454501}
  m_LocalRotation: {x: 0, y: 0, z: 0, w: 1}
  m_LocalPosition: {x: 0, y: 0, z: 0}
  m_LocalScale: {x: 1, y: 1, z: 1}
  m_Children: []
  m_Father: {fileID: 30457041}
  m_RootOrder: 0
  m_LocalEulerAnglesHint: {x: 0, y: 0, z: 0}
  m_AnchorMin: {x: 0.5, y: 0.5}
  m_AnchorMax: {x: 0.5, y: 0.5}
  m_AnchoredPosition: {x: 7.3847504, y: 7.9229717}
  m_SizeDelta: {x: 7.7, y: 3.7}
  m_Pivot: {x: 0.5, y: 0.5}
--- !u!114 &956454503
MonoBehaviour:
  m_ObjectHideFlags: 0
  m_PrefabParentObject: {fileID: 11424652, guid: 3aeb4f8df08b0bb49aacbc22c6bb3bd0,
    type: 2}
  m_PrefabInternal: {fileID: 1659269740}
  m_GameObject: {fileID: 956454501}
  m_Enabled: 1
  m_EditorHideFlags: 0
  m_Script: {fileID: -765806418, guid: f5f67c52d1564df4a8936ccd202a3bd8, type: 3}
  m_Name: 
  m_EditorClassIdentifier: 
  m_Material: {fileID: 0}
  m_Color: {r: 0.94509804, g: 0.9254902, b: 0.8745098, a: 1}
  m_RaycastTarget: 1
  m_OnCullStateChanged:
    m_PersistentCalls:
      m_Calls: []
    m_TypeName: UnityEngine.UI.MaskableGraphic+CullStateChangedEvent, UnityEngine.UI,
      Version=1.0.0.0, Culture=neutral, PublicKeyToken=null
  m_Sprite: {fileID: 21300000, guid: 7ed1238760b863f4aafde32ab3a6f28c, type: 3}
  m_Type: 1
  m_PreserveAspect: 0
  m_FillCenter: 1
  m_FillMethod: 4
  m_FillAmount: 1
  m_FillClockwise: 1
  m_FillOrigin: 0
--- !u!222 &956454504
CanvasRenderer:
  m_ObjectHideFlags: 0
  m_PrefabParentObject: {fileID: 22224650, guid: 3aeb4f8df08b0bb49aacbc22c6bb3bd0,
    type: 2}
  m_PrefabInternal: {fileID: 1659269740}
  m_GameObject: {fileID: 956454501}
--- !u!1 &1147194046
GameObject:
  m_ObjectHideFlags: 0
  m_PrefabParentObject: {fileID: 124640, guid: 3aeb4f8df08b0bb49aacbc22c6bb3bd0, type: 2}
  m_PrefabInternal: {fileID: 1659269740}
  serializedVersion: 5
  m_Component:
  - component: {fileID: 1147194047}
  - component: {fileID: 1147194049}
  - component: {fileID: 1147194048}
  m_Layer: 5
  m_Name: Square
  m_TagString: Untagged
  m_Icon: {fileID: 0}
  m_NavMeshLayer: 0
  m_StaticEditorFlags: 0
  m_IsActive: 1
--- !u!224 &1147194047
RectTransform:
  m_ObjectHideFlags: 0
  m_PrefabParentObject: {fileID: 22424640, guid: 3aeb4f8df08b0bb49aacbc22c6bb3bd0,
    type: 2}
  m_PrefabInternal: {fileID: 1659269740}
  m_GameObject: {fileID: 1147194046}
  m_LocalRotation: {x: 0, y: 0, z: 0.38268292, w: 0.92387974}
  m_LocalPosition: {x: 0, y: 0, z: 0}
  m_LocalScale: {x: 1, y: 1, z: 1}
  m_Children: []
  m_Father: {fileID: 322686558}
  m_RootOrder: 4
  m_LocalEulerAnglesHint: {x: 0, y: 0, z: 0}
  m_AnchorMin: {x: 0.5, y: 0.5}
  m_AnchorMax: {x: 0.5, y: 0.5}
  m_AnchoredPosition: {x: 48.461613, y: 54.769333}
  m_SizeDelta: {x: 122.8, y: 18.9}
  m_Pivot: {x: 0.5, y: 0.5}
--- !u!114 &1147194048
MonoBehaviour:
  m_ObjectHideFlags: 0
  m_PrefabParentObject: {fileID: 11424642, guid: 3aeb4f8df08b0bb49aacbc22c6bb3bd0,
    type: 2}
  m_PrefabInternal: {fileID: 1659269740}
  m_GameObject: {fileID: 1147194046}
  m_Enabled: 1
  m_EditorHideFlags: 0
  m_Script: {fileID: -765806418, guid: f5f67c52d1564df4a8936ccd202a3bd8, type: 3}
  m_Name: 
  m_EditorClassIdentifier: 
  m_Material: {fileID: 0}
  m_Color: {r: 0.18039216, g: 0.18039216, b: 0.18039216, a: 1}
  m_RaycastTarget: 1
  m_OnCullStateChanged:
    m_PersistentCalls:
      m_Calls: []
    m_TypeName: UnityEngine.UI.MaskableGraphic+CullStateChangedEvent, UnityEngine.UI,
      Version=1.0.0.0, Culture=neutral, PublicKeyToken=null
  m_Sprite: {fileID: 21300000, guid: 7ed1238760b863f4aafde32ab3a6f28c, type: 3}
  m_Type: 1
  m_PreserveAspect: 0
  m_FillCenter: 1
  m_FillMethod: 4
  m_FillAmount: 1
  m_FillClockwise: 1
  m_FillOrigin: 0
--- !u!222 &1147194049
CanvasRenderer:
  m_ObjectHideFlags: 0
  m_PrefabParentObject: {fileID: 22224640, guid: 3aeb4f8df08b0bb49aacbc22c6bb3bd0,
    type: 2}
  m_PrefabInternal: {fileID: 1659269740}
  m_GameObject: {fileID: 1147194046}
--- !u!1 &1158359584
GameObject:
  m_ObjectHideFlags: 0
  m_PrefabParentObject: {fileID: 124666, guid: 3aeb4f8df08b0bb49aacbc22c6bb3bd0, type: 2}
  m_PrefabInternal: {fileID: 1659269740}
  serializedVersion: 5
  m_Component:
  - component: {fileID: 1158359585}
  - component: {fileID: 1158359587}
  - component: {fileID: 1158359586}
  m_Layer: 5
  m_Name: Square
  m_TagString: Untagged
  m_Icon: {fileID: 0}
  m_NavMeshLayer: 0
  m_StaticEditorFlags: 0
  m_IsActive: 1
--- !u!224 &1158359585
RectTransform:
  m_ObjectHideFlags: 0
  m_PrefabParentObject: {fileID: 22424666, guid: 3aeb4f8df08b0bb49aacbc22c6bb3bd0,
    type: 2}
  m_PrefabInternal: {fileID: 1659269740}
  m_GameObject: {fileID: 1158359584}
  m_LocalRotation: {x: 0, y: 0, z: 0, w: 1}
  m_LocalPosition: {x: 0, y: 0, z: 0}
  m_LocalScale: {x: 1, y: 1, z: 1}
  m_Children: []
  m_Father: {fileID: 322686558}
  m_RootOrder: 1
  m_LocalEulerAnglesHint: {x: 0, y: 0, z: 0}
  m_AnchorMin: {x: 0.5, y: 0.5}
  m_AnchorMax: {x: 0.5, y: 0.5}
  m_AnchoredPosition: {x: 0, y: 213.92332}
  m_SizeDelta: {x: 21.2, y: 125.6}
  m_Pivot: {x: 0.5, y: 0.5}
--- !u!114 &1158359586
MonoBehaviour:
  m_ObjectHideFlags: 0
  m_PrefabParentObject: {fileID: 11424668, guid: 3aeb4f8df08b0bb49aacbc22c6bb3bd0,
    type: 2}
  m_PrefabInternal: {fileID: 1659269740}
  m_GameObject: {fileID: 1158359584}
  m_Enabled: 1
  m_EditorHideFlags: 0
  m_Script: {fileID: -765806418, guid: f5f67c52d1564df4a8936ccd202a3bd8, type: 3}
  m_Name: 
  m_EditorClassIdentifier: 
  m_Material: {fileID: 0}
  m_Color: {r: 0.18039216, g: 0.18039216, b: 0.18039216, a: 1}
  m_RaycastTarget: 1
  m_OnCullStateChanged:
    m_PersistentCalls:
      m_Calls: []
    m_TypeName: UnityEngine.UI.MaskableGraphic+CullStateChangedEvent, UnityEngine.UI,
      Version=1.0.0.0, Culture=neutral, PublicKeyToken=null
  m_Sprite: {fileID: 21300000, guid: 7ed1238760b863f4aafde32ab3a6f28c, type: 3}
  m_Type: 1
  m_PreserveAspect: 0
  m_FillCenter: 1
  m_FillMethod: 4
  m_FillAmount: 1
  m_FillClockwise: 1
  m_FillOrigin: 0
--- !u!222 &1158359587
CanvasRenderer:
  m_ObjectHideFlags: 0
  m_PrefabParentObject: {fileID: 22224666, guid: 3aeb4f8df08b0bb49aacbc22c6bb3bd0,
    type: 2}
  m_PrefabInternal: {fileID: 1659269740}
  m_GameObject: {fileID: 1158359584}
--- !u!1 &1320473952
GameObject:
  m_ObjectHideFlags: 0
  m_PrefabParentObject: {fileID: 124682, guid: 3aeb4f8df08b0bb49aacbc22c6bb3bd0, type: 2}
  m_PrefabInternal: {fileID: 1659269740}
  serializedVersion: 5
  m_Component:
  - component: {fileID: 1320473953}
  - component: {fileID: 1320473955}
  - component: {fileID: 1320473954}
  m_Layer: 5
  m_Name: Square
  m_TagString: Untagged
  m_Icon: {fileID: 0}
  m_NavMeshLayer: 0
  m_StaticEditorFlags: 0
  m_IsActive: 1
--- !u!224 &1320473953
RectTransform:
  m_ObjectHideFlags: 0
  m_PrefabParentObject: {fileID: 22424682, guid: 3aeb4f8df08b0bb49aacbc22c6bb3bd0,
    type: 2}
  m_PrefabInternal: {fileID: 1659269740}
  m_GameObject: {fileID: 1320473952}
  m_LocalRotation: {x: 0, y: 0, z: -0.38268292, w: 0.92387974}
  m_LocalPosition: {x: 0, y: 0, z: 0}
  m_LocalScale: {x: 1, y: 1, z: 1}
  m_Children: []
  m_Father: {fileID: 322686558}
  m_RootOrder: 7
  m_LocalEulerAnglesHint: {x: 0, y: 0, z: 0}
  m_AnchorMin: {x: 0.5, y: 0.5}
  m_AnchorMax: {x: 0.5, y: 0.5}
  m_AnchoredPosition: {x: -147.92313, y: 139.30763}
  m_SizeDelta: {x: 95.1, y: 18.9}
  m_Pivot: {x: 0.5, y: 0.5}
--- !u!114 &1320473954
MonoBehaviour:
  m_ObjectHideFlags: 0
  m_PrefabParentObject: {fileID: 11424686, guid: 3aeb4f8df08b0bb49aacbc22c6bb3bd0,
    type: 2}
  m_PrefabInternal: {fileID: 1659269740}
  m_GameObject: {fileID: 1320473952}
  m_Enabled: 1
  m_EditorHideFlags: 0
  m_Script: {fileID: -765806418, guid: f5f67c52d1564df4a8936ccd202a3bd8, type: 3}
  m_Name: 
  m_EditorClassIdentifier: 
  m_Material: {fileID: 0}
  m_Color: {r: 0.18039216, g: 0.18039216, b: 0.18039216, a: 1}
  m_RaycastTarget: 1
  m_OnCullStateChanged:
    m_PersistentCalls:
      m_Calls: []
    m_TypeName: UnityEngine.UI.MaskableGraphic+CullStateChangedEvent, UnityEngine.UI,
      Version=1.0.0.0, Culture=neutral, PublicKeyToken=null
  m_Sprite: {fileID: 21300000, guid: 7ed1238760b863f4aafde32ab3a6f28c, type: 3}
  m_Type: 1
  m_PreserveAspect: 0
  m_FillCenter: 1
  m_FillMethod: 4
  m_FillAmount: 1
  m_FillClockwise: 1
  m_FillOrigin: 0
--- !u!222 &1320473955
CanvasRenderer:
  m_ObjectHideFlags: 0
  m_PrefabParentObject: {fileID: 22224682, guid: 3aeb4f8df08b0bb49aacbc22c6bb3bd0,
    type: 2}
  m_PrefabInternal: {fileID: 1659269740}
  m_GameObject: {fileID: 1320473952}
--- !u!1 &1349123599
GameObject:
  m_ObjectHideFlags: 0
  m_PrefabParentObject: {fileID: 124688, guid: 3aeb4f8df08b0bb49aacbc22c6bb3bd0, type: 2}
  m_PrefabInternal: {fileID: 1659269740}
  serializedVersion: 5
  m_Component:
  - component: {fileID: 1349123600}
  - component: {fileID: 1349123602}
  - component: {fileID: 1349123601}
  m_Layer: 5
  m_Name: Square
  m_TagString: Untagged
  m_Icon: {fileID: 0}
  m_NavMeshLayer: 0
  m_StaticEditorFlags: 0
  m_IsActive: 1
--- !u!224 &1349123600
RectTransform:
  m_ObjectHideFlags: 0
  m_PrefabParentObject: {fileID: 22424688, guid: 3aeb4f8df08b0bb49aacbc22c6bb3bd0,
    type: 2}
  m_PrefabInternal: {fileID: 1659269740}
  m_GameObject: {fileID: 1349123599}
  m_LocalRotation: {x: 0, y: 0, z: -0.3826835, w: 0.92387956}
  m_LocalPosition: {x: 0, y: 0, z: 0}
  m_LocalScale: {x: 1, y: 1, z: 1}
  m_Children: []
  m_Father: {fileID: 322686558}
  m_RootOrder: 6
  m_LocalEulerAnglesHint: {x: 0, y: 0, z: 0}
  m_AnchorMin: {x: 0.5, y: 0.5}
  m_AnchorMax: {x: 0.5, y: 0.5}
  m_AnchoredPosition: {x: -35.076973, y: 28.769066}
  m_SizeDelta: {x: 95.1, y: 18.9}
  m_Pivot: {x: 0.5, y: 0.5}
--- !u!114 &1349123601
MonoBehaviour:
  m_ObjectHideFlags: 0
  m_PrefabParentObject: {fileID: 11424694, guid: 3aeb4f8df08b0bb49aacbc22c6bb3bd0,
    type: 2}
  m_PrefabInternal: {fileID: 1659269740}
  m_GameObject: {fileID: 1349123599}
  m_Enabled: 1
  m_EditorHideFlags: 0
  m_Script: {fileID: -765806418, guid: f5f67c52d1564df4a8936ccd202a3bd8, type: 3}
  m_Name: 
  m_EditorClassIdentifier: 
  m_Material: {fileID: 0}
  m_Color: {r: 0.18039216, g: 0.18039216, b: 0.18039216, a: 1}
  m_RaycastTarget: 1
  m_OnCullStateChanged:
    m_PersistentCalls:
      m_Calls: []
    m_TypeName: UnityEngine.UI.MaskableGraphic+CullStateChangedEvent, UnityEngine.UI,
      Version=1.0.0.0, Culture=neutral, PublicKeyToken=null
  m_Sprite: {fileID: 21300000, guid: 7ed1238760b863f4aafde32ab3a6f28c, type: 3}
  m_Type: 1
  m_PreserveAspect: 0
  m_FillCenter: 1
  m_FillMethod: 4
  m_FillAmount: 1
  m_FillClockwise: 1
  m_FillOrigin: 0
--- !u!222 &1349123602
CanvasRenderer:
  m_ObjectHideFlags: 0
  m_PrefabParentObject: {fileID: 22224686, guid: 3aeb4f8df08b0bb49aacbc22c6bb3bd0,
    type: 2}
  m_PrefabInternal: {fileID: 1659269740}
  m_GameObject: {fileID: 1349123599}
--- !u!1 &1387383110
GameObject:
  m_ObjectHideFlags: 0
  m_PrefabParentObject: {fileID: 124668, guid: 3aeb4f8df08b0bb49aacbc22c6bb3bd0, type: 2}
  m_PrefabInternal: {fileID: 1659269740}
  serializedVersion: 5
  m_Component:
  - component: {fileID: 1387383111}
  - component: {fileID: 1387383114}
  - component: {fileID: 1387383113}
  - component: {fileID: 1387383112}
  m_Layer: 5
  m_Name: Panel
  m_TagString: Untagged
  m_Icon: {fileID: 0}
  m_NavMeshLayer: 0
  m_StaticEditorFlags: 0
  m_IsActive: 1
--- !u!224 &1387383111
RectTransform:
  m_ObjectHideFlags: 0
  m_PrefabParentObject: {fileID: 22424668, guid: 3aeb4f8df08b0bb49aacbc22c6bb3bd0,
    type: 2}
  m_PrefabInternal: {fileID: 1659269740}
  m_GameObject: {fileID: 1387383110}
  m_LocalRotation: {x: 0, y: 0, z: 0, w: 1}
  m_LocalPosition: {x: 0, y: 0, z: 0}
  m_LocalScale: {x: 1, y: 1, z: 1}
  m_Children:
  - {fileID: 876830415}
  - {fileID: 671427525}
  - {fileID: 743606019}
  m_Father: {fileID: 451306524}
  m_RootOrder: 1
  m_LocalEulerAnglesHint: {x: 0, y: 0, z: 0}
  m_AnchorMin: {x: 0.5, y: 0.5}
  m_AnchorMax: {x: 0.5, y: 0.5}
  m_AnchoredPosition: {x: 0, y: -0.020019531}
  m_SizeDelta: {x: 640, y: 1136}
  m_Pivot: {x: 0.5, y: 0.5}
--- !u!114 &1387383112
MonoBehaviour:
  m_ObjectHideFlags: 0
  m_PrefabParentObject: {fileID: 11424670, guid: 3aeb4f8df08b0bb49aacbc22c6bb3bd0,
    type: 2}
  m_PrefabInternal: {fileID: 1659269740}
  m_GameObject: {fileID: 1387383110}
  m_Enabled: 1
  m_EditorHideFlags: 0
  m_Script: {fileID: -1200242548, guid: f5f67c52d1564df4a8936ccd202a3bd8, type: 3}
  m_Name: 
  m_EditorClassIdentifier: 
  m_ShowMaskGraphic: 1
--- !u!114 &1387383113
MonoBehaviour:
  m_ObjectHideFlags: 0
  m_PrefabParentObject: {fileID: 11424672, guid: 3aeb4f8df08b0bb49aacbc22c6bb3bd0,
    type: 2}
  m_PrefabInternal: {fileID: 1659269740}
  m_GameObject: {fileID: 1387383110}
  m_Enabled: 1
  m_EditorHideFlags: 0
  m_Script: {fileID: -765806418, guid: f5f67c52d1564df4a8936ccd202a3bd8, type: 3}
  m_Name: 
  m_EditorClassIdentifier: 
  m_Material: {fileID: 0}
  m_Color: {r: 0.18039216, g: 0.18039216, b: 0.18039216, a: 1}
  m_RaycastTarget: 1
  m_OnCullStateChanged:
    m_PersistentCalls:
      m_Calls: []
    m_TypeName: UnityEngine.UI.MaskableGraphic+CullStateChangedEvent, UnityEngine.UI,
      Version=1.0.0.0, Culture=neutral, PublicKeyToken=null
  m_Sprite: {fileID: 21300000, guid: 7ed1238760b863f4aafde32ab3a6f28c, type: 3}
  m_Type: 1
  m_PreserveAspect: 0
  m_FillCenter: 1
  m_FillMethod: 4
  m_FillAmount: 1
  m_FillClockwise: 1
  m_FillOrigin: 0
--- !u!222 &1387383114
CanvasRenderer:
  m_ObjectHideFlags: 0
  m_PrefabParentObject: {fileID: 22224668, guid: 3aeb4f8df08b0bb49aacbc22c6bb3bd0,
    type: 2}
  m_PrefabInternal: {fileID: 1659269740}
  m_GameObject: {fileID: 1387383110}
--- !u!1 &1397338440
GameObject:
  m_ObjectHideFlags: 0
  m_PrefabParentObject: {fileID: 124674, guid: 3aeb4f8df08b0bb49aacbc22c6bb3bd0, type: 2}
  m_PrefabInternal: {fileID: 1659269740}
  serializedVersion: 5
  m_Component:
  - component: {fileID: 1397338441}
  - component: {fileID: 1397338443}
  - component: {fileID: 1397338442}
  m_Layer: 5
  m_Name: Square
  m_TagString: Untagged
  m_Icon: {fileID: 0}
  m_NavMeshLayer: 0
  m_StaticEditorFlags: 0
  m_IsActive: 1
--- !u!224 &1397338441
RectTransform:
  m_ObjectHideFlags: 0
  m_PrefabParentObject: {fileID: 22424674, guid: 3aeb4f8df08b0bb49aacbc22c6bb3bd0,
    type: 2}
  m_PrefabInternal: {fileID: 1659269740}
  m_GameObject: {fileID: 1397338440}
  m_LocalRotation: {x: 0, y: 0, z: 0, w: 1}
  m_LocalPosition: {x: 0, y: 0, z: 0}
  m_LocalScale: {x: 1, y: 1, z: 1}
  m_Children: []
  m_Father: {fileID: 322686558}
  m_RootOrder: 10
  m_LocalEulerAnglesHint: {x: 0, y: 0, z: 0}
  m_AnchorMin: {x: 0.5, y: 0.5}
  m_AnchorMax: {x: 0.5, y: 0.5}
  m_AnchoredPosition: {x: 0, y: -210.00008}
  m_SizeDelta: {x: 21, y: 121}
  m_Pivot: {x: 0.5, y: 0.5}
--- !u!114 &1397338442
MonoBehaviour:
  m_ObjectHideFlags: 0
  m_PrefabParentObject: {fileID: 11424678, guid: 3aeb4f8df08b0bb49aacbc22c6bb3bd0,
    type: 2}
  m_PrefabInternal: {fileID: 1659269740}
  m_GameObject: {fileID: 1397338440}
  m_Enabled: 1
  m_EditorHideFlags: 0
  m_Script: {fileID: -765806418, guid: f5f67c52d1564df4a8936ccd202a3bd8, type: 3}
  m_Name: 
  m_EditorClassIdentifier: 
  m_Material: {fileID: 0}
  m_Color: {r: 0.18039216, g: 0.18039216, b: 0.18039216, a: 1}
  m_RaycastTarget: 1
  m_OnCullStateChanged:
    m_PersistentCalls:
      m_Calls: []
    m_TypeName: UnityEngine.UI.MaskableGraphic+CullStateChangedEvent, UnityEngine.UI,
      Version=1.0.0.0, Culture=neutral, PublicKeyToken=null
  m_Sprite: {fileID: 21300000, guid: 7ed1238760b863f4aafde32ab3a6f28c, type: 3}
  m_Type: 1
  m_PreserveAspect: 0
  m_FillCenter: 1
  m_FillMethod: 4
  m_FillAmount: 1
  m_FillClockwise: 1
  m_FillOrigin: 0
--- !u!222 &1397338443
CanvasRenderer:
  m_ObjectHideFlags: 0
  m_PrefabParentObject: {fileID: 22224674, guid: 3aeb4f8df08b0bb49aacbc22c6bb3bd0,
    type: 2}
  m_PrefabInternal: {fileID: 1659269740}
  m_GameObject: {fileID: 1397338440}
--- !u!1 &1500371475
GameObject:
  m_ObjectHideFlags: 0
  m_PrefabParentObject: {fileID: 0}
  m_PrefabInternal: {fileID: 0}
  serializedVersion: 5
  m_Component:
  - component: {fileID: 1500371479}
  - component: {fileID: 1500371478}
  - component: {fileID: 1500371477}
  - component: {fileID: 1500371476}
  m_Layer: 0
  m_Name: EventSystem
  m_TagString: Untagged
  m_Icon: {fileID: 0}
  m_NavMeshLayer: 0
  m_StaticEditorFlags: 0
  m_IsActive: 1
--- !u!114 &1500371476
MonoBehaviour:
  m_ObjectHideFlags: 0
  m_PrefabParentObject: {fileID: 0}
  m_PrefabInternal: {fileID: 0}
  m_GameObject: {fileID: 1500371475}
  m_Enabled: 1
  m_EditorHideFlags: 0
  m_Script: {fileID: 1997211142, guid: f5f67c52d1564df4a8936ccd202a3bd8, type: 3}
  m_Name: 
  m_EditorClassIdentifier: 
  m_ForceModuleActive: 0
--- !u!114 &1500371477
MonoBehaviour:
  m_ObjectHideFlags: 0
  m_PrefabParentObject: {fileID: 0}
  m_PrefabInternal: {fileID: 0}
  m_GameObject: {fileID: 1500371475}
  m_Enabled: 1
  m_EditorHideFlags: 0
  m_Script: {fileID: 1077351063, guid: f5f67c52d1564df4a8936ccd202a3bd8, type: 3}
  m_Name: 
  m_EditorClassIdentifier: 
  m_HorizontalAxis: Horizontal
  m_VerticalAxis: Vertical
  m_SubmitButton: Submit
  m_CancelButton: Cancel
  m_InputActionsPerSecond: 10
  m_RepeatDelay: 0.5
  m_ForceModuleActive: 0
--- !u!114 &1500371478
MonoBehaviour:
  m_ObjectHideFlags: 0
  m_PrefabParentObject: {fileID: 0}
  m_PrefabInternal: {fileID: 0}
  m_GameObject: {fileID: 1500371475}
  m_Enabled: 1
  m_EditorHideFlags: 0
  m_Script: {fileID: -619905303, guid: f5f67c52d1564df4a8936ccd202a3bd8, type: 3}
  m_Name: 
  m_EditorClassIdentifier: 
  m_FirstSelected: {fileID: 0}
  m_sendNavigationEvents: 1
  m_DragThreshold: 5
--- !u!4 &1500371479
Transform:
  m_ObjectHideFlags: 0
  m_PrefabParentObject: {fileID: 0}
  m_PrefabInternal: {fileID: 0}
  m_GameObject: {fileID: 1500371475}
  m_LocalRotation: {x: 0, y: 0, z: 0, w: 1}
  m_LocalPosition: {x: 0, y: 0, z: 0}
  m_LocalScale: {x: 1, y: 1, z: 1}
  m_Children: []
  m_Father: {fileID: 0}
  m_RootOrder: 1
  m_LocalEulerAnglesHint: {x: 0, y: 0, z: 0}
--- !u!1 &1511305452
GameObject:
  m_ObjectHideFlags: 0
  m_PrefabParentObject: {fileID: 0}
  m_PrefabInternal: {fileID: 0}
  serializedVersion: 5
  m_Component:
  - component: {fileID: 1511305453}
  m_Layer: 0
  m_Name: __SET_YOUR_GAMESCREEN_TO_640x1136
  m_TagString: Untagged
  m_Icon: {fileID: 0}
  m_NavMeshLayer: 0
  m_StaticEditorFlags: 0
  m_IsActive: 1
--- !u!4 &1511305453
Transform:
  m_ObjectHideFlags: 0
  m_PrefabParentObject: {fileID: 0}
  m_PrefabInternal: {fileID: 0}
  m_GameObject: {fileID: 1511305452}
  m_LocalRotation: {x: 0, y: 0, z: 0, w: 1}
  m_LocalPosition: {x: 494.995, y: 627.74, z: 0}
  m_LocalScale: {x: 1, y: 1, z: 1}
  m_Children: []
  m_Father: {fileID: 0}
  m_RootOrder: 2
  m_LocalEulerAnglesHint: {x: 0, y: 0, z: 0}
--- !u!1001 &1659269740
Prefab:
  m_ObjectHideFlags: 0
  serializedVersion: 2
  m_Modification:
    m_TransformParent: {fileID: 0}
    m_Modifications:
    - target: {fileID: 22424686, guid: 3aeb4f8df08b0bb49aacbc22c6bb3bd0, type: 2}
      propertyPath: m_LocalPosition.x
      value: 0
      objectReference: {fileID: 0}
    - target: {fileID: 22424686, guid: 3aeb4f8df08b0bb49aacbc22c6bb3bd0, type: 2}
      propertyPath: m_LocalPosition.y
      value: 0
      objectReference: {fileID: 0}
    - target: {fileID: 22424686, guid: 3aeb4f8df08b0bb49aacbc22c6bb3bd0, type: 2}
      propertyPath: m_LocalPosition.z
      value: 0
      objectReference: {fileID: 0}
    - target: {fileID: 22424686, guid: 3aeb4f8df08b0bb49aacbc22c6bb3bd0, type: 2}
      propertyPath: m_LocalRotation.x
      value: 0
      objectReference: {fileID: 0}
    - target: {fileID: 22424686, guid: 3aeb4f8df08b0bb49aacbc22c6bb3bd0, type: 2}
      propertyPath: m_LocalRotation.y
      value: 0
      objectReference: {fileID: 0}
    - target: {fileID: 22424686, guid: 3aeb4f8df08b0bb49aacbc22c6bb3bd0, type: 2}
      propertyPath: m_LocalRotation.z
      value: 0
      objectReference: {fileID: 0}
    - target: {fileID: 22424686, guid: 3aeb4f8df08b0bb49aacbc22c6bb3bd0, type: 2}
      propertyPath: m_LocalRotation.w
      value: 1
      objectReference: {fileID: 0}
    - target: {fileID: 22424686, guid: 3aeb4f8df08b0bb49aacbc22c6bb3bd0, type: 2}
      propertyPath: m_RootOrder
      value: 0
      objectReference: {fileID: 0}
    - target: {fileID: 22424686, guid: 3aeb4f8df08b0bb49aacbc22c6bb3bd0, type: 2}
      propertyPath: m_AnchoredPosition.x
      value: 0
      objectReference: {fileID: 0}
    - target: {fileID: 22424686, guid: 3aeb4f8df08b0bb49aacbc22c6bb3bd0, type: 2}
      propertyPath: m_AnchoredPosition.y
      value: 0
      objectReference: {fileID: 0}
    - target: {fileID: 22424686, guid: 3aeb4f8df08b0bb49aacbc22c6bb3bd0, type: 2}
      propertyPath: m_SizeDelta.x
      value: 0
      objectReference: {fileID: 0}
    - target: {fileID: 22424686, guid: 3aeb4f8df08b0bb49aacbc22c6bb3bd0, type: 2}
      propertyPath: m_SizeDelta.y
      value: 0
      objectReference: {fileID: 0}
    - target: {fileID: 22424686, guid: 3aeb4f8df08b0bb49aacbc22c6bb3bd0, type: 2}
      propertyPath: m_AnchorMin.x
      value: 0
      objectReference: {fileID: 0}
    - target: {fileID: 22424686, guid: 3aeb4f8df08b0bb49aacbc22c6bb3bd0, type: 2}
      propertyPath: m_AnchorMin.y
      value: 0
      objectReference: {fileID: 0}
    - target: {fileID: 22424686, guid: 3aeb4f8df08b0bb49aacbc22c6bb3bd0, type: 2}
      propertyPath: m_AnchorMax.x
      value: 0
      objectReference: {fileID: 0}
    - target: {fileID: 22424686, guid: 3aeb4f8df08b0bb49aacbc22c6bb3bd0, type: 2}
      propertyPath: m_AnchorMax.y
      value: 0
      objectReference: {fileID: 0}
    - target: {fileID: 22424686, guid: 3aeb4f8df08b0bb49aacbc22c6bb3bd0, type: 2}
      propertyPath: m_Pivot.x
      value: 0
      objectReference: {fileID: 0}
    - target: {fileID: 22424686, guid: 3aeb4f8df08b0bb49aacbc22c6bb3bd0, type: 2}
      propertyPath: m_Pivot.y
      value: 0
      objectReference: {fileID: 0}
    m_RemovedComponents: []
  m_ParentPrefab: {fileID: 100100000, guid: 3aeb4f8df08b0bb49aacbc22c6bb3bd0, type: 2}
  m_RootGameObject: {fileID: 451306520}
  m_IsPrefabParent: 0
--- !u!1 &2018735162
GameObject:
  m_ObjectHideFlags: 0
  m_PrefabParentObject: {fileID: 124656, guid: 3aeb4f8df08b0bb49aacbc22c6bb3bd0, type: 2}
  m_PrefabInternal: {fileID: 1659269740}
  serializedVersion: 5
  m_Component:
  - component: {fileID: 2018735163}
  - component: {fileID: 2018735165}
  - component: {fileID: 2018735164}
  m_Layer: 5
  m_Name: Square
  m_TagString: Untagged
  m_Icon: {fileID: 0}
  m_NavMeshLayer: 0
  m_StaticEditorFlags: 0
  m_IsActive: 1
--- !u!224 &2018735163
RectTransform:
  m_ObjectHideFlags: 0
  m_PrefabParentObject: {fileID: 22424656, guid: 3aeb4f8df08b0bb49aacbc22c6bb3bd0,
    type: 2}
  m_PrefabInternal: {fileID: 1659269740}
  m_GameObject: {fileID: 2018735162}
  m_LocalRotation: {x: 0, y: 0, z: 0, w: 1}
  m_LocalPosition: {x: 0, y: 0, z: 0}
  m_LocalScale: {x: 1, y: 1, z: 1}
  m_Children: []
  m_Father: {fileID: 322686558}
  m_RootOrder: 9
  m_LocalEulerAnglesHint: {x: 0, y: 0, z: 0}
  m_AnchorMin: {x: 0.5, y: 0.5}
  m_AnchorMax: {x: 0.5, y: 0.5}
  m_AnchoredPosition: {x: 0, y: 10.923257}
  m_SizeDelta: {x: 21.2, y: 169.4}
  m_Pivot: {x: 0.5, y: 0.5}
--- !u!114 &2018735164
MonoBehaviour:
  m_ObjectHideFlags: 0
  m_PrefabParentObject: {fileID: 11424658, guid: 3aeb4f8df08b0bb49aacbc22c6bb3bd0,
    type: 2}
  m_PrefabInternal: {fileID: 1659269740}
  m_GameObject: {fileID: 2018735162}
  m_Enabled: 1
  m_EditorHideFlags: 0
  m_Script: {fileID: -765806418, guid: f5f67c52d1564df4a8936ccd202a3bd8, type: 3}
  m_Name: 
  m_EditorClassIdentifier: 
  m_Material: {fileID: 0}
  m_Color: {r: 0.18039216, g: 0.18039216, b: 0.18039216, a: 1}
  m_RaycastTarget: 1
  m_OnCullStateChanged:
    m_PersistentCalls:
      m_Calls: []
    m_TypeName: UnityEngine.UI.MaskableGraphic+CullStateChangedEvent, UnityEngine.UI,
      Version=1.0.0.0, Culture=neutral, PublicKeyToken=null
  m_Sprite: {fileID: 21300000, guid: 7ed1238760b863f4aafde32ab3a6f28c, type: 3}
  m_Type: 1
  m_PreserveAspect: 0
  m_FillCenter: 1
  m_FillMethod: 4
  m_FillAmount: 1
  m_FillClockwise: 1
  m_FillOrigin: 0
--- !u!222 &2018735165
CanvasRenderer:
  m_ObjectHideFlags: 0
  m_PrefabParentObject: {fileID: 22224656, guid: 3aeb4f8df08b0bb49aacbc22c6bb3bd0,
    type: 2}
  m_PrefabInternal: {fileID: 1659269740}
  m_GameObject: {fileID: 2018735162}
--- !u!1 &2095145436
GameObject:
  m_ObjectHideFlags: 0
  m_PrefabParentObject: {fileID: 124646, guid: 3aeb4f8df08b0bb49aacbc22c6bb3bd0, type: 2}
  m_PrefabInternal: {fileID: 1659269740}
  serializedVersion: 5
  m_Component:
  - component: {fileID: 2095145437}
  - component: {fileID: 2095145439}
  - component: {fileID: 2095145438}
  m_Layer: 5
  m_Name: Square
  m_TagString: Untagged
  m_Icon: {fileID: 0}
  m_NavMeshLayer: 0
  m_StaticEditorFlags: 0
  m_IsActive: 1
--- !u!224 &2095145437
RectTransform:
  m_ObjectHideFlags: 0
  m_PrefabParentObject: {fileID: 22424646, guid: 3aeb4f8df08b0bb49aacbc22c6bb3bd0,
    type: 2}
  m_PrefabInternal: {fileID: 1659269740}
  m_GameObject: {fileID: 2095145436}
  m_LocalRotation: {x: 0, y: 0, z: 0, w: 1}
  m_LocalPosition: {x: 0, y: 0, z: 0}
  m_LocalScale: {x: 1, y: 1, z: 1}
  m_Children: []
  m_Father: {fileID: 322686558}
  m_RootOrder: 8
  m_LocalEulerAnglesHint: {x: 0, y: 0, z: 0}
  m_AnchorMin: {x: 0.5, y: 0.5}
  m_AnchorMax: {x: 0.5, y: 0.5}
  m_AnchoredPosition: {x: 0, y: 32.769394}
  m_SizeDelta: {x: 21.2, y: 125.6}
  m_Pivot: {x: 0.5, y: 0.5}
--- !u!114 &2095145438
MonoBehaviour:
  m_ObjectHideFlags: 0
  m_PrefabParentObject: {fileID: 11424648, guid: 3aeb4f8df08b0bb49aacbc22c6bb3bd0,
    type: 2}
  m_PrefabInternal: {fileID: 1659269740}
  m_GameObject: {fileID: 2095145436}
  m_Enabled: 1
  m_EditorHideFlags: 0
  m_Script: {fileID: -765806418, guid: f5f67c52d1564df4a8936ccd202a3bd8, type: 3}
  m_Name: 
  m_EditorClassIdentifier: 
  m_Material: {fileID: 0}
  m_Color: {r: 0.18039216, g: 0.18039216, b: 0.18039216, a: 1}
  m_RaycastTarget: 1
  m_OnCullStateChanged:
    m_PersistentCalls:
      m_Calls: []
    m_TypeName: UnityEngine.UI.MaskableGraphic+CullStateChangedEvent, UnityEngine.UI,
      Version=1.0.0.0, Culture=neutral, PublicKeyToken=null
  m_Sprite: {fileID: 21300000, guid: 7ed1238760b863f4aafde32ab3a6f28c, type: 3}
  m_Type: 1
  m_PreserveAspect: 0
  m_FillCenter: 1
  m_FillMethod: 4
  m_FillAmount: 1
  m_FillClockwise: 1
  m_FillOrigin: 0
--- !u!222 &2095145439
CanvasRenderer:
  m_ObjectHideFlags: 0
  m_PrefabParentObject: {fileID: 22224646, guid: 3aeb4f8df08b0bb49aacbc22c6bb3bd0,
    type: 2}
  m_PrefabInternal: {fileID: 1659269740}
  m_GameObject: {fileID: 2095145436}
